132,512,256,68.952008,67.452973
174,448,256,69.227132,72.148217
174,480,256,69.008611,74.951456
174,512,256,69.280457,66.238647
216,416,256,74.635801,84.753920
216,448,256,74.671924,72.554687
216,480,256,74.893814,74.979660
216,512,256,74.729815,66.584133
258,384,256,73.611659,75.291257
258,416,256,74.450352,85.132643
258,448,256,74.901945,71.767289
258,480,256,73.792251,74.191674
258,512,256,74.613963,66.309550
300,320,256,75.843687,77.996387
300,352,256,76.178590,86.189922
300,384,256,76.067031,69.438846
300,416,256,77.679088,84.136793
300,448,256,76.835180,67.692036
300,480,256,77.536180,73.398190
300,512,256,76.899970,60.897796
342,288,256,73.470484,75.928597
342,320,256,74.565520,70.984041
342,352,256,74.760017,75.147123
342,384,256,75.330721,68.913215
342,416,256,76.130544,74.351274
342,448,256,77.705247,69.753657
342,480,256,77.331644,73.859361
342,512,256,76.604918,61.098865
384,256,256,75.739134,74.236240
384,288,256,76.785269,87.429690
384,320,256,76.100588,70.349047
384,352,256,78.050302,83.201108
384,384,256,78.438267,74.220359
384,416,256,78.966696,84.030126
384,448,256,79.797991,70.727063
384,480,256,79.692377,74.378439
384,512,256,80.035131,65.257893
426,192,256,71.673337,76.727595
426,224,256,73.431178,75.890837
426,256,256,73.908399,66.825730
426,288,256,74.212605,74.304463
426,320,256,76.139782,72.928669
426,352,256,77.623093,75.874112
426,384,256,76.881980,70.677022
426,416,256,79.345992,75.165098
426,448,256,78.571414,69.922804
426,480,256,79.709160,74.546185
426,512,256,79.649030,66.015402
468,160,256,72.061668,77.275741
468,192,256,74.386800,74.300610
468,224,256,74.153101,75.724326
468,256,256,75.358408,64.315306
468,288,256,77.483833,75.367902
468,320,256,79.224629,70.807423
468,352,256,79.394478,74.874342
468,384,256,79.995994,68.789875
468,416,256,78.858806,73.778536
468,448,256,81.021502,68.606179
468,480,256,81.530438,74.214053
468,512,256,80.570919,60.109085
510,128,256,68.032953,78.195444
510,160,256,71.119866,75.332001
510,192,256,70.354683,70.207389
510,224,256,74.901959,74.059728
510,256,256,74.980133,68.871067
510,288,256,76.819431,74.787007
510,320,256,77.817533,69.192489
510,352,256,78.123249,72.945364
510,384,256,79.167656,69.729808
510,416,256,80.185270,74.646040
510,448,256,79.863504,66.661707
510,480,256,80.488719,73.009463
510,512,256,81.493040,65.693830
552,128,256,68.036182,68.570929
552,160,256,70.952297,80.897919
552,192,256,73.586394,71.449506
552,224,256,75.568723,70.043321
552,256,256,77.350598,69.131647
552,288,256,78.678399,84.209634
552,320,256,80.470550,72.621874
552,352,256,80.109834,81.408681
552,384,256,80.224967,70.910510
552,416,256,80.760968,79.731845
552,448,256,81.996530,68.310156
594,128,256,67.640969,70.883468
594,160,256,71.619184,76.751313
594,192,256,74.182567,74.377655
594,224,256,75.149795,73.996309
594,256,256,75.759833,67.410306
594,288,256,78.142677,82.949329
594,320,256,78.427732,71.999420
594,352,256,78.547372,80.401608
594,384,256,79.044142,70.573002
594,416,256,80.188575,80.968095
636,128,256,69.577629,70.374813
636,160,256,72.585844,81.355688
636,192,256,75.451716,70.591806
636,224,256,77.333885,71.854892
636,256,256,77.704692,65.017593
636,288,256,77.308257,73.178873
636,320,256,80.471592,65.977857
636,352,256,80.768570,81.703432
636,384,256,80.974248,66.683026
678,128,256,66.141615,65.603004
678,160,256,71.826433,70.019791
678,192,256,74.495208,67.919257
678,224,256,76.045268,70.481073
678,256,256,77.522139,65.504372
678,288,256,78.366285,69.878522
678,320,256,79.195163,67.500414
720,128,256,70.254411,71.107819
720,160,256,72.225592,69.710606
720,192,256,75.617841,66.377251
720,224,256,77.156020,68.236412
720,256,256,78.343531,63.326279
720,288,256,78.577228,68.878180
720,512,128,81.597870,65.903124
762,128,256,68.729796,65.560999
762,160,256,72.085548,76.770742
762,192,256,73.589304,62.632550
762,224,256,75.331793,63.936052
762,256,256,77.738563,63.135614
762,480,128,80.026430,72.316384
762,512,128,79.467034,65.110081
