ti,tj,tk,i,j,k,blis,gen
426,192,256,426,192,512,72.685021,68.984400
426,192,256,426,192,768,72.362236,69.470828
426,192,256,426,192,1024,69.873054,65.992540
426,192,256,426,384,512,78.183467,73.325043
426,192,256,426,384,768,78.421587,72.957487
426,192,256,426,384,1024,76.982868,73.124864
426,192,256,426,576,512,79.676764,74.538913
426,192,256,426,576,768,81.744373,74.261596
426,192,256,426,576,1024,80.166597,69.665513
426,192,256,426,768,256,82.011946,74.775403
426,192,256,426,768,512,81.158104,73.446596
426,192,256,426,768,768,82.288077,69.234591
426,192,256,426,768,1024,81.729802,69.745047
426,192,256,426,960,256,82.298134,75.565305
426,192,256,426,960,512,81.769156,75.398717
426,192,256,426,960,768,83.737073,75.559959
426,192,256,426,960,1024,82.240979,75.085232
426,192,256,426,1152,256,82.668336,75.879354
426,192,256,426,1152,512,82.226912,70.341502
426,192,256,426,1152,768,83.194380,68.701862
426,192,256,426,1152,1024,82.102313,70.525253
426,192,256,426,1344,256,82.960243,70.498331
426,192,256,426,1344,512,83.059503,75.712383
426,192,256,426,1344,768,83.169163,70.177914
426,192,256,426,1344,1024,80.536685,74.221211
426,192,256,426,1536,256,83.067791,69.131496
426,192,256,426,1536,512,81.632517,71.793484
426,192,256,426,1536,768,82.600435,73.349116
426,192,256,426,1536,1024,80.506611,73.269475
426,192,256,426,1728,256,82.990837,65.407626
426,192,256,426,1728,512,82.004060,75.003544
426,192,256,426,1728,768,82.504765,75.655430
426,192,256,426,1728,1024,80.651769,70.417035
426,192,256,426,1920,256,84.112323,75.882041
426,192,256,426,1920,512,82.834063,69.669487
426,192,256,426,1920,768,80.986635,69.858590
426,192,256,426,1920,1024,80.512116,69.859425
426,192,256,852,192,256,76.509766,69.387913
426,192,256,852,192,512,76.299241,69.915106
426,192,256,852,192,768,77.513757,69.075393
426,192,256,852,192,1024,72.899320,69.451509
426,192,256,852,384,256,82.831064,69.472155
426,192,256,852,384,512,82.424414,67.755803
426,192,256,852,384,768,83.868004,69.966209
426,192,256,852,384,1024,81.288835,72.627126
426,192,256,852,576,256,85.325192,74.325015
426,192,256,852,576,512,84.845199,73.985943
426,192,256,852,576,768,85.364925,73.419830
426,192,256,852,576,1024,83.226222,74.368917
426,192,256,852,768,256,86.634259,74.910360
426,192,256,852,768,512,85.852790,74.372955
426,192,256,852,768,768,87.622590,74.365395
426,192,256,852,768,1024,84.842210,74.396420
426,192,256,852,960,256,86.178315,64.492957
426,192,256,852,960,512,85.686180,75.274278
426,192,256,852,960,768,84.944518,74.906641
426,192,256,852,960,1024,85.258313,74.242067
426,192,256,852,1152,256,87.394760,73.018453
426,192,256,852,1152,512,87.323915,74.605416
426,192,256,852,1152,768,86.728821,67.093277
426,192,256,852,1152,1024,84.051531,69.757478
426,192,256,852,1344,256,86.411252,70.317238
426,192,256,852,1344,512,86.329294,74.716190
426,192,256,852,1344,768,85.899687,67.172742
426,192,256,852,1344,1024,82.721250,67.518325
426,192,256,852,1536,256,87.564806,68.732814
426,192,256,852,1536,512,86.839988,74.027342
426,192,256,852,1536,768,86.785893,73.467525
426,192,256,852,1536,1024,83.092437,69.628798
426,192,256,852,1728,256,86.645534,73.950713
426,192,256,852,1728,512,85.269127,74.773894
426,192,256,852,1728,768,85.770124,69.288475
426,192,256,852,1728,1024,84.194302,73.718206
426,192,256,852,1920,256,87.130757,74.986652
426,192,256,852,1920,512,84.013371,75.150137
426,192,256,852,1920,768,85.165012,68.043499
426,192,256,852,1920,1024,84.683508,66.129509
426,192,256,1278,192,256,77.207514,67.456416
426,192,256,1278,192,512,75.848716,65.059691
426,192,256,1278,192,768,78.141449,65.596023
426,192,256,1278,192,1024,75.112827,66.346091
426,192,256,1278,384,256,83.539312,70.166519
426,192,256,1278,384,512,82.787782,68.448870
426,192,256,1278,384,768,84.415511,68.714015
426,192,256,1278,384,1024,81.898823,68.367616
426,192,256,1278,576,256,85.468511,70.713723
426,192,256,1278,576,512,84.463825,70.204524
426,192,256,1278,576,768,86.290301,69.304884
426,192,256,1278,576,1024,84.462947,70.178235
426,192,256,1278,768,256,86.580268,70.998947
426,192,256,1278,768,512,85.336844,70.489709
426,192,256,1278,768,768,87.133037,70.603824
426,192,256,1278,768,1024,85.565308,70.282012
426,192,256,1278,960,256,87.977918,74.835972
426,192,256,1278,960,512,87.226692,74.039477
426,192,256,1278,960,768,87.306551,74.608176
426,192,256,1278,960,1024,85.462510,63.846640
426,192,256,1278,1152,256,88.204187,71.327580
426,192,256,1278,1152,512,81.726868,69.999248
426,192,256,1278,1152,768,87.496193,70.670746
426,192,256,1278,1152,1024,84.926350,70.150178
426,192,256,1278,1344,256,87.494117,64.938846
426,192,256,1278,1344,512,85.763300,69.563085
426,192,256,1278,1344,768,86.700730,62.486233
426,192,256,1278,1344,1024,85.232581,63.320894
426,192,256,1278,1536,256,86.514478,63.415640
426,192,256,1278,1536,512,85.038426,62.356530
426,192,256,1278,1536,768,86.107650,68.301208
426,192,256,1278,1536,1024,85.374920,61.300534
426,192,256,1278,1728,256,87.270192,69.699633
426,192,256,1278,1728,512,85.560181,69.687483
426,192,256,1278,1728,768,85.828995,68.270647
426,192,256,1278,1728,1024,83.994443,65.798636
426,192,256,1278,1920,256,87.343696,68.523936
426,192,256,1278,1920,512,85.170449,72.099581
426,192,256,1278,1920,768,85.913748,71.395590
426,192,256,1278,1920,1024,83.319568,66.383366
426,192,256,1704,192,256,78.278611,72.207115
426,192,256,1704,192,512,76.911452,67.905654
426,192,256,1704,192,768,79.002520,69.435430
426,192,256,1704,192,1024,75.884311,70.291611
426,192,256,1704,384,256,85.435183,73.425600
426,192,256,1704,384,512,84.006625,68.848535
426,192,256,1704,384,768,85.721898,73.436162
426,192,256,1704,384,1024,83.446413,73.653916
426,192,256,1704,576,256,85.659163,74.739496
426,192,256,1704,576,512,85.638843,69.695980
426,192,256,1704,576,768,87.040030,74.601720
426,192,256,1704,576,1024,85.037005,73.752181
426,192,256,1704,768,256,87.348679,74.749622
426,192,256,1704,768,512,85.966126,74.077660
426,192,256,1704,768,768,86.970748,64.093929
426,192,256,1704,768,1024,85.859556,74.220912
426,192,256,1704,960,256,88.590178,75.403747
426,192,256,1704,960,512,87.971805,74.568286
426,192,256,1704,960,768,87.710490,74.692296
426,192,256,1704,960,1024,85.840353,73.228326
426,192,256,1704,1152,256,87.834934,74.416394
426,192,256,1704,1152,512,85.731389,69.269616
426,192,256,1704,1152,768,87.184583,73.148073
426,192,256,1704,1152,1024,86.467621,63.131557
426,192,256,1704,1344,256,87.522032,74.106174
426,192,256,1704,1344,512,85.595975,63.804771
426,192,256,1704,1344,768,86.843994,71.995860
426,192,256,1704,1344,1024,85.534594,71.276646
426,192,256,1704,1536,256,86.591213,67.395984
426,192,256,1704,1536,512,86.099621,61.521926
426,192,256,1704,1536,768,87.168806,70.283655
426,192,256,1704,1536,1024,85.965780,69.717094
426,192,256,1704,1728,256,87.256189,72.617912
426,192,256,1704,1728,512,85.768116,61.344824
426,192,256,1704,1728,768,86.793322,68.353960
426,192,256,1704,1728,1024,85.789633,60.238626
426,192,256,1704,1920,256,87.098764,72.191841
426,192,256,1704,1920,512,85.919227,70.698788
426,192,256,1704,1920,768,86.425156,69.358595
426,192,256,1704,1920,1024,85.699529,58.837940
426,224,256,426,224,512,72.626670,66.123399
426,224,256,426,224,768,74.682810,68.433244
426,224,256,426,224,1024,72.554572,69.421061
426,224,256,426,448,512,78.070850,71.108064
426,224,256,426,448,768,79.633879,71.083367
426,224,256,426,448,1024,77.668635,71.626423
426,224,256,426,672,256,79.301920,62.636042
426,224,256,426,672,512,79.564617,63.400948
426,224,256,426,672,768,81.975537,72.009576
426,224,256,426,672,1024,80.645743,72.820571
426,224,256,426,896,256,82.056177,71.642934
426,224,256,426,896,512,80.251142,72.327818
426,224,256,426,896,768,82.100176,71.912743
426,224,256,426,896,1024,82.179143,72.537755
426,224,256,426,1120,256,82.625336,71.572205
426,224,256,426,1120,512,82.129564,72.007088
426,224,256,426,1120,768,82.725193,68.687335
426,224,256,426,1120,1024,81.821564,71.786942
426,224,256,426,1344,256,83.008339,71.595564
426,224,256,426,1344,512,81.260275,72.380396
426,224,256,426,1344,768,83.446592,70.926258
426,224,256,426,1344,1024,81.017688,71.742438
426,224,256,426,1568,256,82.708627,71.788757
426,224,256,426,1568,512,81.328989,63.672767
426,224,256,426,1568,768,82.726267,72.890517
426,224,256,426,1568,1024,79.869527,72.054774
426,224,256,426,1792,256,83.094977,71.743432
426,224,256,426,1792,512,82.908198,69.806562
426,224,256,426,1792,768,81.827668,63.596146
426,224,256,426,1792,1024,80.543853,63.853068
426,224,256,426,2016,256,83.660895,68.280846
426,224,256,426,2016,512,82.022165,72.261234
426,224,256,426,2016,768,82.100156,68.715267
426,224,256,426,2016,1024,79.161925,71.650673
426,224,256,852,224,256,77.334612,67.322081
426,224,256,852,224,512,77.848349,69.548565
426,224,256,852,224,768,79.313674,69.319387
426,224,256,852,224,1024,76.441287,69.489949
426,224,256,852,448,256,84.069518,71.916311
426,224,256,852,448,512,83.429053,71.079710
426,224,256,852,448,768,85.435910,72.306492
426,224,256,852,448,1024,82.688056,72.025796
426,224,256,852,672,256,85.756251,72.728266
426,224,256,852,672,512,85.811430,72.659090
426,224,256,852,672,768,86.416768,72.726045
426,224,256,852,672,1024,84.735656,63.549566
426,224,256,852,896,256,85.781828,62.809797
426,224,256,852,896,512,84.302888,72.489010
426,224,256,852,896,768,86.634763,63.861606
426,224,256,852,896,1024,85.094146,72.262032
426,224,256,852,1120,256,87.764597,72.700289
426,224,256,852,1120,512,85.933383,72.581700
426,224,256,852,1120,768,86.871211,72.476876
426,224,256,852,1120,1024,84.262563,71.764799
426,224,256,852,1344,256,85.681256,70.707872
426,224,256,852,1344,512,86.982585,73.345000
426,224,256,852,1344,768,86.566119,72.435242
426,224,256,852,1344,1024,84.757659,63.324439
426,224,256,852,1568,256,87.560389,72.818811
426,224,256,852,1568,512,86.549851,72.410197
426,224,256,852,1568,768,84.998346,71.650733
426,224,256,852,1568,1024,83.342799,71.238061
426,224,256,852,1792,256,87.983998,72.050430
426,224,256,852,1792,512,85.632955,71.526619
426,224,256,852,1792,768,86.372119,62.028037
426,224,256,852,1792,1024,84.890131,71.422415
426,224,256,852,2016,256,87.116029,67.592375
426,224,256,852,2016,512,85.804558,66.863290
426,224,256,852,2016,768,85.070536,61.448882
426,224,256,852,2016,1024,83.227161,70.397516
426,224,256,1278,224,256,77.969702,69.392628
426,224,256,1278,224,512,78.665901,69.902177
426,224,256,1278,224,768,79.328693,66.172590
426,224,256,1278,224,1024,76.900161,70.031996
426,224,256,1278,448,256,84.588605,73.003523
426,224,256,1278,448,512,84.486929,73.020643
426,224,256,1278,448,768,85.518574,63.384538
426,224,256,1278,448,1024,81.870618,62.823798
426,224,256,1278,672,256,87.190537,69.895197
426,224,256,1278,672,512,85.921027,68.801030
426,224,256,1278,672,768,86.678092,69.574697
426,224,256,1278,672,1024,82.387443,68.718089
426,224,256,1278,896,256,87.913445,69.703375
426,224,256,1278,896,512,87.161287,68.900182
426,224,256,1278,896,768,85.906295,68.318028
426,224,256,1278,896,1024,85.202140,62.880223
426,224,256,1278,1120,256,87.673951,72.567458
426,224,256,1278,1120,512,85.840350,63.273850
426,224,256,1278,1120,768,86.620215,62.656396
426,224,256,1278,1120,1024,85.241928,72.357488
426,224,256,1278,1344,256,88.388707,68.946797
426,224,256,1278,1344,512,86.129165,69.251210
426,224,256,1278,1344,768,87.105087,62.408082
426,224,256,1278,1344,1024,85.334160,68.203821
426,224,256,1278,1568,256,86.962422,68.863106
426,224,256,1278,1568,512,85.222051,68.292513
426,224,256,1278,1568,768,86.264183,60.751691
426,224,256,1278,1568,1024,84.514596,67.316152
426,224,256,1278,1792,256,87.428696,70.929957
426,224,256,1278,1792,512,84.520645,61.882587
426,224,256,1278,1792,768,86.510277,60.791489
426,224,256,1278,1792,1024,85.216548,60.834248
426,224,256,1278,2016,256,87.197575,70.689729
426,224,256,1278,2016,512,84.995679,69.044231
426,224,256,1278,2016,768,85.262980,63.794946
426,224,256,1278,2016,1024,84.178979,59.065059
426,224,256,1704,224,256,78.948691,69.765351
426,224,256,1704,224,512,79.267387,69.555211
426,224,256,1704,224,768,79.993552,68.573656
426,224,256,1704,224,1024,76.542108,64.627819
426,224,256,1704,448,256,86.294208,72.936267
426,224,256,1704,448,512,85.875273,66.517417
426,224,256,1704,448,768,85.956291,71.961022
426,224,256,1704,448,1024,84.023724,72.631399
426,224,256,1704,672,256,87.784979,72.777008
426,224,256,1704,672,512,86.782579,73.243795
426,224,256,1704,672,768,87.463701,72.769903
426,224,256,1704,672,1024,85.616645,72.478392
426,224,256,1704,896,256,88.253315,72.097774
426,224,256,1704,896,512,87.550495,72.095827
426,224,256,1704,896,768,87.690296,71.700714
426,224,256,1704,896,1024,85.846188,70.555470
426,224,256,1704,1120,256,88.431183,71.289265
426,224,256,1704,1120,512,85.863830,71.069440
426,224,256,1704,1120,768,86.888565,70.883054
426,224,256,1704,1120,1024,85.569207,70.244667
426,224,256,1704,1344,256,87.687165,62.502511
426,224,256,1704,1344,512,85.082163,61.734886
426,224,256,1704,1344,768,87.040920,70.044566
426,224,256,1704,1344,1024,85.416095,65.006161
426,224,256,1704,1568,256,87.009597,60.792730
426,224,256,1704,1568,512,85.045369,60.936884
426,224,256,1704,1568,768,85.936325,59.701553
426,224,256,1704,1568,1024,85.343994,68.505607
426,224,256,1704,1792,256,86.751183,69.664598
426,224,256,1704,1792,512,85.902763,68.723715
426,224,256,1704,1792,768,87.049971,68.279705
426,224,256,1704,1792,1024,85.798636,63.665351
426,224,256,1704,2016,256,86.672793,68.380781
426,224,256,1704,2016,512,84.542585,61.261970
426,224,256,1704,2016,768,84.976642,60.614860
426,224,256,1704,2016,1024,84.059190,59.858537
510,160,256,510,160,512,69.912246,63.757752
510,160,256,510,160,768,71.756240,61.724640
510,160,256,510,160,1024,67.735461,63.492187
510,160,256,510,480,512,80.356170,69.171496
510,160,256,510,480,768,81.000696,69.210160
510,160,256,510,480,1024,79.648204,70.145848
510,160,256,510,800,256,83.195503,71.310454
510,160,256,510,800,512,83.031220,71.129916
510,160,256,510,800,768,83.571722,70.551876
510,160,256,510,800,1024,80.273584,69.422108
510,160,256,510,1120,256,84.502995,72.305079
510,160,256,510,1120,512,82.791180,70.101480
510,160,256,510,1120,768,84.489844,71.665412
510,160,256,510,1120,1024,82.396784,71.689367
510,160,256,510,1440,256,83.842029,68.538127
510,160,256,510,1440,512,83.746815,71.571026
510,160,256,510,1440,768,82.470090,70.824279
510,160,256,510,1440,1024,81.712761,68.914574
510,160,256,510,1760,256,84.933304,71.792414
510,160,256,510,1760,512,83.735029,71.601887
510,160,256,510,1760,768,82.268500,70.395795
510,160,256,510,1760,1024,80.368078,71.004576
510,160,256,1020,160,256,72.659640,64.315588
510,160,256,1020,160,512,73.867399,64.191710
510,160,256,1020,160,768,75.479930,63.768589
510,160,256,1020,160,1024,71.613822,64.039412
510,160,256,1020,480,256,84.232167,69.532109
510,160,256,1020,480,512,84.330308,64.038962
510,160,256,1020,480,768,86.193642,67.940293
510,160,256,1020,480,1024,83.074358,68.963781
510,160,256,1020,800,256,87.686036,71.694264
510,160,256,1020,800,512,86.498536,70.834263
510,160,256,1020,800,768,87.538929,70.174868
510,160,256,1020,800,1024,84.162748,70.059458
510,160,256,1020,1120,256,87.809335,70.536474
510,160,256,1020,1120,512,86.561107,71.555281
510,160,256,1020,1120,768,85.115847,71.487447
510,160,256,1020,1120,1024,84.943324,68.857352
510,160,256,1020,1440,256,88.498934,71.795607
510,160,256,1020,1440,512,85.500864,70.423782
510,160,256,1020,1440,768,86.463112,70.447082
510,160,256,1020,1440,1024,84.651408,70.497200
510,160,256,1020,1760,256,88.216606,68.848436
510,160,256,1020,1760,512,84.258937,68.960808
510,160,256,1020,1760,768,86.105049,63.779920
510,160,256,1020,1760,1024,84.232000,62.420513
510,160,256,1530,160,256,73.126115,68.026006
510,160,256,1530,160,512,74.646137,68.226664
510,160,256,1530,160,768,76.417901,68.708469
510,160,256,1530,160,1024,72.421851,67.614486
510,160,256,1530,480,256,86.393127,70.674124
510,160,256,1530,480,512,84.913839,69.518669
510,160,256,1530,480,768,84.754964,67.097975
510,160,256,1530,480,1024,82.393894,63.775109
510,160,256,1530,800,256,87.918126,69.199672
510,160,256,1530,800,512,85.493902,65.240484
510,160,256,1530,800,768,85.805349,71.984109
510,160,256,1530,800,1024,83.925689,70.572918
510,160,256,1530,1120,256,86.440863,68.736059
510,160,256,1530,1120,512,85.122192,68.918330
510,160,256,1530,1120,768,85.434719,68.874960
510,160,256,1530,1120,1024,84.724191,66.966840
510,160,256,1530,1440,256,87.506477,71.010366
510,160,256,1530,1440,512,84.984830,64.328138
510,160,256,1530,1440,768,86.187851,66.941917
510,160,256,1530,1440,1024,85.228402,67.496192
510,160,256,1530,1760,256,85.930867,75.129354
510,160,256,1530,1760,512,83.826481,58.058398
510,160,256,1530,1760,768,85.462738,66.173048
510,160,256,1530,1760,1024,83.785327,62.300113
510,160,256,2040,160,256,76.141377,67.021245
510,160,256,2040,160,512,75.908665,64.511268
510,160,256,2040,160,768,76.917337,60.751083
510,160,256,2040,160,1024,72.184177,59.939644
510,160,256,2040,480,256,86.865198,70.331685
510,160,256,2040,480,512,86.031170,66.281068
510,160,256,2040,480,768,85.764047,68.112597
510,160,256,2040,480,1024,84.415201,68.550993
510,160,256,2040,800,256,88.681404,71.824644
510,160,256,2040,800,512,83.398326,68.069564
510,160,256,2040,800,768,86.952616,68.694776
510,160,256,2040,800,1024,84.935300,67.437438
510,160,256,2040,1120,256,87.819498,69.733085
510,160,256,2040,1120,512,84.004434,70.377672
510,160,256,2040,1120,768,87.109118,63.935037
510,160,256,2040,1120,1024,86.192857,69.380976
510,160,256,2040,1440,256,87.079034,64.406928
510,160,256,2040,1440,512,85.607801,66.021160
510,160,256,2040,1440,768,84.464711,64.730837
510,160,256,2040,1440,1024,85.602715,63.088078
510,160,256,2040,1760,256,86.988758,67.224660
510,160,256,2040,1760,512,84.702808,64.282432
510,160,256,2040,1760,768,84.798266,62.471896
510,160,256,2040,1760,1024,85.528860,62.181135
510,192,256,510,192,512,72.854263,63.043658
510,192,256,510,192,768,73.466379,63.972021
510,192,256,510,192,1024,71.211891,64.663781
510,192,256,510,384,512,78.266714,67.934086
510,192,256,510,384,768,80.597388,67.855130
510,192,256,510,384,1024,78.775667,69.068645
510,192,256,510,576,256,81.261636,69.934594
510,192,256,510,576,512,81.211945,69.871156
510,192,256,510,576,768,82.617486,69.994026
510,192,256,510,576,1024,81.349969,67.771458
510,192,256,510,768,256,82.173934,70.004048
510,192,256,510,768,512,82.258464,69.717001
510,192,256,510,768,768,83.732743,67.269519
510,192,256,510,768,1024,80.919476,63.112188
510,192,256,510,960,256,83.028928,69.862827
510,192,256,510,960,512,83.735723,70.895169
510,192,256,510,960,768,84.567193,70.282964
510,192,256,510,960,1024,83.143481,70.828261
510,192,256,510,1152,256,82.986567,70.396105
510,192,256,510,1152,512,83.629690,70.779935
510,192,256,510,1152,768,82.242050,69.993550
510,192,256,510,1152,1024,82.730601,70.709442
510,192,256,510,1344,256,84.167988,71.130048
510,192,256,510,1344,512,84.240572,71.406913
510,192,256,510,1344,768,84.036968,70.589968
510,192,256,510,1344,1024,81.111649,70.499339
510,192,256,510,1536,256,84.799124,70.440888
510,192,256,510,1536,512,82.451467,69.385792
510,192,256,510,1536,768,82.632247,69.286111
510,192,256,510,1536,1024,80.404922,63.300250
510,192,256,510,1728,256,83.924005,71.017297
510,192,256,510,1728,512,83.422131,71.100289
510,192,256,510,1728,768,83.609684,71.254971
510,192,256,510,1728,1024,81.709639,70.279988
510,192,256,510,1920,256,84.993323,70.336692
510,192,256,510,1920,512,83.538489,71.342001
510,192,256,510,1920,768,81.098113,70.547296
510,192,256,510,1920,1024,80.529004,64.430401
510,192,256,1020,192,256,75.626492,65.277443
510,192,256,1020,192,512,77.088534,60.309899
510,192,256,1020,192,768,78.572845,65.325492
510,192,256,1020,192,1024,74.326186,63.979059
510,192,256,1020,384,256,83.106346,69.482597
510,192,256,1020,384,512,84.133514,67.435970
510,192,256,1020,384,768,85.044209,67.714559
510,192,256,1020,384,1024,82.135383,64.092932
510,192,256,1020,576,256,85.954003,70.089294
510,192,256,1020,576,512,83.709978,68.972581
510,192,256,1020,576,768,84.603762,63.212146
510,192,256,1020,576,1024,84.173601,68.850559
510,192,256,1020,768,256,87.519204,69.939290
510,192,256,1020,768,512,87.056970,68.393280
510,192,256,1020,768,768,85.969170,68.781456
510,192,256,1020,768,1024,85.638306,69.282903
510,192,256,1020,960,256,87.382598,70.444840
510,192,256,1020,960,512,87.261640,70.150770
510,192,256,1020,960,768,87.363536,69.171152
510,192,256,1020,960,1024,85.890899,69.279207
510,192,256,1020,1152,256,87.839888,70.952371
510,192,256,1020,1152,512,84.854888,70.023859
510,192,256,1020,1152,768,85.975119,64.037157
510,192,256,1020,1152,1024,84.394237,63.453929
510,192,256,1020,1344,256,88.054210,70.319619
510,192,256,1020,1344,512,85.600378,69.267405
510,192,256,1020,1344,768,87.041633,70.055211
510,192,256,1020,1344,1024,85.006913,69.455308
510,192,256,1020,1536,256,87.645883,70.243280
510,192,256,1020,1536,512,85.589654,68.602351
510,192,256,1020,1536,768,85.441106,68.958992
510,192,256,1020,1536,1024,82.938968,62.621791
510,192,256,1020,1728,256,88.041191,70.329884
510,192,256,1020,1728,512,85.519907,70.356381
510,192,256,1020,1728,768,85.314065,69.240668
510,192,256,1020,1728,1024,83.859155,68.317020
510,192,256,1020,1920,256,87.092633,69.375775
510,192,256,1020,1920,512,85.333403,69.037320
510,192,256,1020,1920,768,85.312317,68.388282
510,192,256,1020,1920,1024,83.652734,67.269931
510,192,256,1530,192,256,76.416444,68.594425
510,192,256,1530,192,512,77.391909,69.444110
510,192,256,1530,192,768,78.179173,68.403713
510,192,256,1530,192,1024,75.159677,66.650997
510,192,256,1530,384,256,83.934201,71.662884
510,192,256,1530,384,512,84.267135,71.448333
510,192,256,1530,384,768,84.731974,71.292705
510,192,256,1530,384,1024,82.668054,71.101034
510,192,256,1530,576,256,86.677165,73.029483
510,192,256,1530,576,512,85.713812,74.276090
510,192,256,1530,576,768,85.792799,67.992688
510,192,256,1530,576,1024,84.195748,72.665488
510,192,256,1530,768,256,88.058791,68.763597
510,192,256,1530,768,512,86.717427,73.507946
510,192,256,1530,768,768,86.225167,72.386486
510,192,256,1530,768,1024,84.560443,71.438691
510,192,256,1530,960,256,88.108654,71.225069
510,192,256,1530,960,512,85.646110,69.260195
510,192,256,1530,960,768,87.269173,69.986282
510,192,256,1530,960,1024,83.217618,62.822113
510,192,256,1530,1152,256,87.432816,74.450632
510,192,256,1530,1152,512,85.364152,72.929237
510,192,256,1530,1152,768,86.418094,73.596072
510,192,256,1530,1152,1024,84.661969,63.111135
510,192,256,1530,1344,256,86.657172,63.914867
510,192,256,1530,1344,512,85.594303,63.158534
510,192,256,1530,1344,768,84.579758,62.124539
510,192,256,1530,1344,1024,85.275353,62.512637
510,192,256,1530,1536,256,87.123300,72.401427
510,192,256,1530,1536,512,83.521300,71.198020
510,192,256,1530,1536,768,86.133628,66.002823
510,192,256,1530,1536,1024,84.951989,66.873664
510,192,256,1530,1728,256,86.899195,69.827582
510,192,256,1530,1728,512,85.214825,71.371917
510,192,256,1530,1728,768,85.915219,65.651138
510,192,256,1530,1728,1024,85.162167,65.917287
510,192,256,1530,1920,256,86.963479,68.476091
510,192,256,1530,1920,512,83.983437,65.950106
510,192,256,1530,1920,768,85.679671,63.297744
510,192,256,1530,1920,1024,84.341609,64.909109
510,192,256,2040,192,256,78.572681,66.585478
510,192,256,2040,192,512,78.443772,65.579836
510,192,256,2040,192,768,79.248099,64.273214
510,192,256,2040,192,1024,75.644452,65.585533
510,192,256,2040,384,256,84.961787,68.095242
510,192,256,2040,384,512,84.127799,66.442389
510,192,256,2040,384,768,84.847547,65.750003
510,192,256,2040,384,1024,82.675195,66.644246
510,192,256,2040,576,256,86.154452,69.535927
510,192,256,2040,576,512,84.693313,68.848597
510,192,256,2040,576,768,85.950275,69.672498
510,192,256,2040,576,1024,83.426614,68.620650
510,192,256,2040,768,256,87.688984,68.863275
510,192,256,2040,768,512,85.882730,69.334378
510,192,256,2040,768,768,85.940896,63.010202
510,192,256,2040,768,1024,85.158306,62.629496
510,192,256,2040,960,256,87.090314,67.963190
510,192,256,2040,960,512,86.217350,62.556798
510,192,256,2040,960,768,86.282732,66.213271
510,192,256,2040,960,1024,85.820794,66.439368
510,192,256,2040,1152,256,87.912302,69.695433
510,192,256,2040,1152,512,85.330427,67.902372
510,192,256,2040,1152,768,86.738952,67.276236
510,192,256,2040,1152,1024,85.619798,61.088929
510,192,256,2040,1344,256,87.394186,68.801334
510,192,256,2040,1344,512,85.503845,66.754952
510,192,256,2040,1344,768,86.762254,65.708206
510,192,256,2040,1344,1024,85.865064,60.320500
510,192,256,2040,1536,256,86.748126,67.698576
510,192,256,2040,1536,512,85.742776,65.742396
510,192,256,2040,1536,768,85.933234,64.941627
510,192,256,2040,1536,1024,85.968411,62.177938
510,192,256,2040,1728,256,86.301623,64.372497
510,192,256,2040,1728,512,84.865749,63.206552
510,192,256,2040,1728,768,86.677461,62.077471
510,192,256,2040,1728,1024,85.787949,61.014869
510,192,256,2040,1920,256,87.194992,65.795987
510,192,256,2040,1920,512,85.762543,62.245129
510,192,256,2040,1920,768,86.559773,61.055825
510,192,256,2040,1920,1024,86.419273,60.766945
552,128,256,552,128,512,67.173156,63.674203
552,128,256,552,128,768,69.210736,64.961626
552,128,256,552,128,1024,67.683023,65.802165
552,128,256,552,384,512,81.231670,69.170153
552,128,256,552,384,768,82.901495,69.279588
552,128,256,552,384,1024,77.911268,67.492010
552,128,256,552,640,256,83.561462,71.456437
552,128,256,552,640,512,83.708201,70.391434
552,128,256,552,640,768,84.981808,71.501891
552,128,256,552,640,1024,82.781849,70.063903
552,128,256,552,896,256,84.569693,75.848653
552,128,256,552,896,512,84.597565,72.151639
552,128,256,552,896,768,86.245118,70.288175
552,128,256,552,896,1024,82.966681,76.037609
552,128,256,552,1152,256,84.893175,72.631786
552,128,256,552,1152,512,83.677036,71.619007
552,128,256,552,1152,768,85.676816,73.027116
552,128,256,552,1152,1024,84.126944,72.350584
552,128,256,552,1408,256,85.604042,73.277624
552,128,256,552,1408,512,86.013726,73.210079
552,128,256,552,1408,768,84.089502,72.171749
552,128,256,552,1408,1024,82.218720,72.316510
552,128,256,552,1664,256,85.827114,70.893705
552,128,256,552,1664,512,85.044617,73.605334
552,128,256,552,1664,768,85.320559,73.351823
552,128,256,552,1664,1024,83.038089,71.644285
552,128,256,552,1920,256,87.023611,78.680083
552,128,256,552,1920,512,84.542753,76.616516
552,128,256,552,1920,768,83.729082,76.568049
552,128,256,552,1920,1024,81.371267,73.159784
552,128,256,1104,128,256,70.533272,65.445514
552,128,256,1104,128,512,70.174580,65.901092
552,128,256,1104,128,768,71.742465,64.275249
552,128,256,1104,128,1024,67.341173,65.493221
552,128,256,1104,384,256,83.061494,69.234854
552,128,256,1104,384,512,84.320601,64.310936
552,128,256,1104,384,768,84.379548,68.836717
552,128,256,1104,384,1024,82.344047,64.286333
552,128,256,1104,640,256,86.369190,70.163897
552,128,256,1104,640,512,85.068477,70.222918
552,128,256,1104,640,768,83.950337,69.190172
552,128,256,1104,640,1024,84.231828,71.070874
552,128,256,1104,896,256,88.230283,67.036496
552,128,256,1104,896,512,85.601790,72.957732
552,128,256,1104,896,768,84.946706,75.373600
552,128,256,1104,896,1024,86.012029,76.986895
552,128,256,1104,1152,256,88.685566,71.240548
552,128,256,1104,1152,512,86.931860,72.603019
552,128,256,1104,1152,768,87.244273,71.663159
552,128,256,1104,1152,1024,84.630538,66.752740
552,128,256,1104,1408,256,88.472162,71.586123
552,128,256,1104,1408,512,86.179331,71.958621
552,128,256,1104,1408,768,86.830606,68.512081
552,128,256,1104,1408,1024,84.304094,66.206967
552,128,256,1104,1664,256,87.200392,72.813932
552,128,256,1104,1664,512,85.325473,71.393053
552,128,256,1104,1664,768,86.248033,71.116644
552,128,256,1104,1664,1024,83.566912,70.609190
552,128,256,1104,1920,256,87.951876,77.060932
552,128,256,1104,1920,512,83.784256,75.202514
552,128,256,1104,1920,768,85.358334,74.674698
552,128,256,1104,1920,1024,84.332560,70.653621
552,128,256,1656,128,256,72.039121,66.744153
552,128,256,1656,128,512,69.692129,64.387403
552,128,256,1656,128,768,72.694879,66.434251
552,128,256,1656,128,1024,68.346087,65.051190
552,128,256,1656,384,256,84.027507,69.246186
552,128,256,1656,384,512,84.329998,69.751913
552,128,256,1656,384,768,85.728822,69.647561
552,128,256,1656,384,1024,82.978862,68.937487
552,128,256,1656,640,256,86.780993,70.619202
552,128,256,1656,640,512,86.023268,69.380690
552,128,256,1656,640,768,86.054898,70.206679
552,128,256,1656,640,1024,85.014791,71.176102
552,128,256,1656,896,256,87.978070,76.359294
552,128,256,1656,896,512,86.833538,72.713250
552,128,256,1656,896,768,86.530230,75.550061
552,128,256,1656,896,1024,85.999377,75.059095
552,128,256,1656,1152,256,88.417249,72.800233
552,128,256,1656,1152,512,85.473158,71.196719
552,128,256,1656,1152,768,85.338048,70.112339
552,128,256,1656,1152,1024,85.394539,70.185519
552,128,256,1656,1408,256,88.617485,72.139703
552,128,256,1656,1408,512,85.936612,69.588158
552,128,256,1656,1408,768,86.970502,67.591886
552,128,256,1656,1408,1024,85.576122,68.213005
552,128,256,1656,1664,256,87.190909,71.458370
552,128,256,1656,1664,512,84.788444,69.811499
552,128,256,1656,1664,768,86.648216,66.129855
552,128,256,1656,1664,1024,84.832309,67.524641
552,128,256,1656,1920,256,87.353935,74.557164
552,128,256,1656,1920,512,85.347336,66.849116
552,128,256,1656,1920,768,85.573343,67.168718
552,128,256,1656,1920,1024,85.917207,65.639933
594,128,256,594,128,512,69.607888,67.624161
594,128,256,594,128,768,68.745700,64.378908
594,128,256,594,128,1024,66.600240,66.237376
594,128,256,594,384,512,79.901759,67.185824
594,128,256,594,384,768,81.854639,68.951330
594,128,256,594,384,1024,79.975667,68.841161
594,128,256,594,640,256,82.536002,71.365399
594,128,256,594,640,512,82.073048,69.033308
594,128,256,594,640,768,83.579784,70.863588
594,128,256,594,640,1024,81.537078,68.222395
594,128,256,594,896,256,84.114419,75.016213
594,128,256,594,896,512,84.894755,75.251527
594,128,256,594,896,768,85.128911,74.015809
594,128,256,594,896,1024,83.444126,76.535226
594,128,256,594,1152,256,85.489876,71.176405
594,128,256,594,1152,512,84.469643,70.518656
594,128,256,594,1152,768,83.235248,72.275170
594,128,256,594,1152,1024,81.889860,70.438666
594,128,256,594,1408,256,85.399729,72.576210
594,128,256,594,1408,512,83.979637,71.411360
594,128,256,594,1408,768,83.801808,71.755261
594,128,256,594,1408,1024,81.734243,71.908331
594,128,256,594,1664,256,85.656356,72.628816
594,128,256,594,1664,512,83.436214,71.806123
594,128,256,594,1664,768,83.570121,73.204504
594,128,256,594,1664,1024,82.508856,70.147617
594,128,256,594,1920,256,85.718940,75.824008
594,128,256,594,1920,512,83.769980,77.399530
594,128,256,594,1920,768,83.541420,77.053195
594,128,256,594,1920,1024,79.543062,76.132427
594,128,256,1188,128,256,71.040682,65.643293
594,128,256,1188,128,512,70.983478,63.911469
594,128,256,1188,128,768,71.421518,64.141637
594,128,256,1188,128,1024,68.050581,63.653269
594,128,256,1188,384,256,84.343527,69.711225
594,128,256,1188,384,512,84.070536,69.590036
594,128,256,1188,384,768,85.301893,69.224501
594,128,256,1188,384,1024,82.789358,69.759525
594,128,256,1188,640,256,87.265766,70.559355
594,128,256,1188,640,512,86.075907,71.024684
594,128,256,1188,640,768,86.965535,68.844777
594,128,256,1188,640,1024,83.095326,68.209104
594,128,256,1188,896,256,88.731479,69.296797
594,128,256,1188,896,512,87.311397,76.724963
594,128,256,1188,896,768,87.569327,76.035458
594,128,256,1188,896,1024,85.095881,73.687437
594,128,256,1188,1152,256,88.015960,72.631143
594,128,256,1188,1152,512,87.287544,71.995964
594,128,256,1188,1152,768,86.747192,71.468612
594,128,256,1188,1152,1024,85.153947,69.900388
594,128,256,1188,1408,256,88.267716,71.112562
594,128,256,1188,1408,512,87.159733,69.153686
594,128,256,1188,1408,768,87.136807,69.239975
594,128,256,1188,1408,1024,85.386271,70.832382
594,128,256,1188,1664,256,88.230976,72.111867
594,128,256,1188,1664,512,85.938557,71.207789
594,128,256,1188,1664,768,86.222204,68.108832
594,128,256,1188,1664,1024,85.195873,70.081749
594,128,256,1188,1920,256,87.694427,73.944965
594,128,256,1188,1920,512,84.912557,75.041886
594,128,256,1188,1920,768,85.431139,69.770598
594,128,256,1188,1920,1024,84.629635,72.778494
594,128,256,1782,128,256,69.777014,61.671465
594,128,256,1782,128,512,71.399971,60.694409
594,128,256,1782,128,768,72.662653,62.316232
594,128,256,1782,128,1024,68.111111,60.227545
594,128,256,1782,384,256,84.287271,63.044936
594,128,256,1782,384,512,84.493932,74.115216
594,128,256,1782,384,768,84.675023,71.021975
594,128,256,1782,384,1024,82.801913,73.813927
594,128,256,1782,640,256,87.294755,75.651686
594,128,256,1782,640,512,85.307132,74.340972
594,128,256,1782,640,768,85.510096,75.799263
594,128,256,1782,640,1024,84.642741,64.893199
594,128,256,1782,896,256,88.209354,67.013123
594,128,256,1782,896,512,86.127162,66.649583
594,128,256,1782,896,768,85.189558,65.659148
594,128,256,1782,896,1024,85.715773,75.442580
594,128,256,1782,1152,256,87.426572,70.692418
594,128,256,1782,1152,512,84.361761,64.726478
594,128,256,1782,1152,768,85.538784,69.099987
594,128,256,1782,1152,1024,85.048310,73.913287
594,128,256,1782,1408,256,87.625773,75.693235
594,128,256,1782,1408,512,83.853150,74.283317
594,128,256,1782,1408,768,85.525939,71.843453
594,128,256,1782,1408,1024,82.954670,68.585182
594,128,256,1782,1664,256,86.583195,73.784175
594,128,256,1782,1664,512,85.522468,63.403939
594,128,256,1782,1664,768,86.173295,61.611717
594,128,256,1782,1664,1024,85.386989,61.781943
594,128,256,1782,1920,256,86.090615,63.529201
594,128,256,1782,1920,512,84.394780,61.817599
594,128,256,1782,1920,768,84.381870,60.572013
594,128,256,1782,1920,1024,84.775161,60.807330
