150,160,128,150,480,512,63.247773,75.677203
150,160,128,150,640,384,68.347509,65.154612
150,160,128,150,640,512,68.571735,64.179569
150,160,128,300,320,512,76.131263,70.007584
150,160,128,300,480,384,80.097044,78.782626
150,160,128,300,480,512,79.192920,72.222445
150,160,128,300,640,384,79.746197,63.269605
150,160,128,300,640,512,78.140222,63.079344
150,160,128,450,160,512,70.836728,81.974329
150,160,128,450,320,384,79.286750,69.820439
150,160,128,450,320,512,77.681216,67.637508
150,160,128,450,480,384,80.358687,73.936057
150,160,128,450,480,512,80.163370,70.536010
150,160,128,450,640,256,81.676206,59.647999
150,160,128,450,640,384,82.559852,62.805201
150,160,128,450,640,512,80.023021,56.942865
150,160,128,600,160,384,73.472808,82.185214
150,160,128,600,160,512,74.139862,79.169136
150,160,128,600,320,384,81.601515,70.311041
150,160,128,600,320,512,80.190264,71.772230
150,160,128,600,480,256,83.494445,72.724862
150,160,128,600,480,384,84.081372,72.319426
150,160,128,600,480,512,82.663531,72.837080
150,160,128,600,640,256,84.364200,62.775396
150,160,128,600,640,384,84.845566,58.648003
150,160,128,600,640,512,82.687962,61.520592
150,160,128,750,160,384,75.027588,81.568656
150,160,128,750,160,512,73.174134,80.591542
150,160,128,750,320,256,81.119037,73.139458
150,160,128,750,320,384,81.972789,67.243670
150,160,128,750,320,512,80.759476,67.750582
150,160,128,750,480,256,83.295180,74.844367
150,160,128,750,480,384,82.875726,76.531209
150,160,128,750,480,512,83.447857,74.255703
150,160,128,750,640,256,83.728792,62.111711
150,160,128,750,640,384,85.440317,58.224340
150,160,128,750,640,512,84.348147,58.467828
150,160,256,150,480,512,67.639930,70.678619
150,160,256,150,640,512,68.677603,67.322831
150,160,256,300,320,512,77.265564,63.416149
150,160,256,300,480,512,77.107737,69.446454
150,160,256,300,640,512,79.008952,61.966330
150,160,256,450,160,512,70.431620,79.676205
150,160,256,450,320,512,78.050499,61.782638
150,160,256,450,480,512,77.713846,69.194481
150,160,256,450,640,256,80.417585,62.171871
150,160,256,450,640,512,81.044261,62.166637
150,160,256,600,160,512,73.704238,76.078698
150,160,256,600,320,512,79.792912,61.974680
150,160,256,600,480,256,83.488727,70.236044
150,160,256,600,480,512,82.311216,69.855099
150,160,256,600,640,256,83.562505,62.580339
150,160,256,600,640,512,82.296203,66.017864
150,160,256,750,160,512,72.373001,75.128864
150,160,256,750,320,256,80.550158,63.758568
150,160,256,750,320,512,80.687355,68.520662
150,160,256,750,480,256,83.583649,69.533877
150,160,256,750,480,512,83.717876,69.727705
150,160,256,750,640,256,84.928658,68.472144
150,160,256,750,640,512,83.174331,66.174522
150,288,128,150,576,384,68.868767,63.849756
150,288,128,150,576,512,68.518952,64.768344
150,288,128,300,288,512,76.003149,80.568314
150,288,128,300,576,384,80.511146,61.786002
150,288,128,300,576,512,78.741436,65.946899
150,288,128,450,288,384,78.478391,81.411893
150,288,128,450,288,512,76.989251,77.509818
150,288,128,450,576,256,81.047140,61.340964
150,288,128,450,576,384,81.503368,64.585214
150,288,128,450,576,512,79.596307,59.951628
150,288,128,600,288,384,80.771662,80.615627
150,288,128,600,288,512,79.233344,79.844585
150,288,128,600,576,256,83.654511,59.672616
150,288,128,600,576,384,84.418057,65.038998
150,288,128,600,576,512,82.019347,64.778041
150,288,128,750,288,256,79.392756,78.219245
150,288,128,750,288,384,81.106655,79.731595
150,288,128,750,288,512,78.842116,78.879473
150,288,128,750,576,256,83.872869,65.132252
150,288,128,750,576,384,85.046722,61.100149
150,288,128,750,576,512,83.913343,56.464536
150,288,256,150,576,512,67.337017,62.664833
150,288,256,300,288,512,75.017949,73.468138
150,288,256,300,576,512,77.641308,66.617674
150,288,256,450,288,512,76.211618,67.857356
150,288,256,450,576,256,81.062919,67.535527
150,288,256,450,576,512,80.880922,57.317916
150,288,256,600,288,512,78.686240,68.994189
150,288,256,600,576,256,82.881598,67.707470
150,288,256,600,576,512,82.643541,62.164010
150,288,256,750,288,256,79.051926,75.876599
150,288,256,750,288,512,80.215207,74.880627
150,288,256,750,576,256,83.621144,68.226735
150,288,256,750,576,512,82.961614,62.686674
150,352,128,150,704,384,70.727745,65.131211
150,352,128,150,704,512,69.052216,64.777502
150,352,128,300,352,512,75.962206,76.896295
150,352,128,300,704,384,81.340475,64.984382
150,352,128,300,704,512,80.207526,64.358273
150,352,128,450,352,384,79.917190,78.106477
150,352,128,450,352,512,78.472049,76.784597
150,352,128,450,704,256,82.208950,58.648773
150,352,128,450,704,384,82.832228,58.622808
150,352,128,450,704,512,80.821339,62.496856
150,352,128,600,352,384,82.234211,78.827589
150,352,128,600,352,512,81.554005,79.165965
150,352,128,600,704,256,84.632677,63.633193
150,352,128,600,704,384,85.791422,63.918673
150,352,128,600,704,512,83.134561,58.679844
150,352,128,750,352,256,80.771675,79.024437
150,352,128,750,352,384,82.656207,78.992861
150,352,128,750,352,512,80.104363,75.504980
150,352,128,750,704,256,84.288648,63.816325
150,352,128,750,704,384,85.429820,58.869264
150,352,128,750,704,512,83.463003,63.274903
150,352,256,150,704,512,69.715251,63.551289
150,352,256,300,352,512,77.493354,65.845520
150,352,256,300,704,512,79.015154,61.011268
150,352,256,450,352,512,77.530763,70.625177
150,352,256,450,704,256,81.114946,66.637043
150,352,256,450,704,512,80.943653,62.835138
150,352,256,600,352,512,80.954900,71.337343
150,352,256,600,704,256,84.782015,67.376158
150,352,256,600,704,512,82.978443,61.072952
150,352,256,750,352,256,80.899827,72.514772
150,352,256,750,352,512,80.721756,65.380368
150,352,256,750,704,256,84.617673,61.883418
150,352,256,750,704,512,83.824160,66.674785
174,160,128,174,480,512,71.069661,77.795877
174,160,128,174,640,384,71.853853,60.385352
174,160,128,174,640,512,70.459412,59.933560
174,160,128,348,320,512,77.515818,72.751920
174,160,128,348,480,384,79.144559,77.777010
174,160,128,348,480,512,80.325770,74.623523
174,160,128,348,640,384,81.473960,63.343779
174,160,128,348,640,512,81.233123,53.668092
174,160,128,522,160,512,70.794810,81.481685
174,160,128,522,320,384,79.880383,68.823111
174,160,128,522,320,512,78.011965,71.090664
174,160,128,522,480,384,81.975915,75.634533
174,160,128,522,480,512,80.487677,73.437047
174,160,128,522,640,256,81.962306,58.454737
174,160,128,522,640,384,80.806761,62.654616
174,160,128,522,640,512,81.300039,61.261223
174,160,128,696,160,384,74.315926,78.973729
174,160,128,696,160,512,73.301647,79.854504
174,160,128,696,320,384,82.819862,64.173881
174,160,128,696,320,512,81.396703,71.902770
174,160,128,696,480,256,83.029529,75.255807
174,160,128,696,480,384,84.497371,71.880457
174,160,128,696,480,512,83.791235,65.705568
174,160,128,696,640,256,84.720409,58.694958
174,160,128,696,640,384,86.045433,62.726712
174,160,128,696,640,512,84.891222,62.115474
174,160,256,174,480,512,69.461583,70.309614
174,160,256,174,640,512,71.447017,62.507828
174,160,256,348,320,512,77.332461,61.737746
174,160,256,348,480,512,79.989417,69.952898
174,160,256,348,640,512,80.315880,66.247784
174,160,256,522,160,512,72.128012,75.754329
174,160,256,522,320,512,79.394111,67.407399
174,160,256,522,480,512,80.658538,59.540843
174,160,256,522,640,256,82.307533,67.753007
174,160,256,522,640,512,80.900284,66.014012
174,160,256,696,160,512,73.817793,80.421425
174,160,256,696,320,512,81.540938,58.886119
174,160,256,696,480,256,83.961005,59.745761
174,160,256,696,480,512,83.565164,69.162350
174,160,256,696,640,256,84.306035,62.344151
174,160,256,696,640,512,84.836201,67.810356
174,288,128,174,576,384,70.477213,68.094628
174,288,128,174,576,512,70.436587,62.561261
174,288,128,348,288,512,77.494294,81.814174
174,288,128,348,576,384,80.982792,61.356123
174,288,128,348,576,512,79.070513,65.159364
174,288,128,522,288,384,78.548669,80.295003
174,288,128,522,288,512,77.291313,79.044776
174,288,128,522,576,256,80.866131,61.009010
174,288,128,522,576,384,83.081208,65.750872
174,288,128,522,576,512,81.620219,56.310581
174,288,128,696,288,384,82.404167,77.011536
174,288,128,696,288,512,79.894098,78.784324
174,288,128,696,576,256,84.903709,65.924617
174,288,128,696,576,384,85.331895,65.690323
174,288,128,696,576,512,84.255447,56.442712
174,288,256,174,576,512,70.325661,62.260890
174,288,256,348,288,512,76.127070,74.708624
174,288,256,348,576,512,78.917545,66.635072
174,288,256,522,288,512,77.409289,73.650185
174,288,256,522,576,256,82.346280,68.560112
174,288,256,522,576,512,80.888539,62.119699
174,288,256,696,288,512,79.784188,64.644263
174,288,256,696,576,256,84.058301,58.101733
174,288,256,696,576,512,81.589453,61.987143
174,352,128,174,352,512,68.776489,81.175997
174,352,128,174,704,384,70.973190,60.545969
174,352,128,174,704,512,70.693541,65.909180
174,352,128,348,352,384,79.144735,82.142434
174,352,128,348,352,512,78.213357,77.597718
174,352,128,348,704,256,80.602068,64.255794
174,352,128,348,704,384,82.485903,59.123198
174,352,128,348,704,512,81.380981,63.979192
174,352,128,522,352,384,80.716567,79.682359
174,352,128,522,352,512,78.857146,78.547917
174,352,128,522,704,256,83.368752,64.784991
174,352,128,522,704,384,82.902860,64.029839
174,352,128,522,704,512,82.511658,58.569390
174,352,128,696,352,256,81.139937,77.193712
174,352,128,696,352,384,83.838802,78.856067
174,352,128,696,352,512,81.199337,75.672986
174,352,128,696,704,256,84.769715,58.891211
174,352,128,696,704,384,86.050105,59.048872
174,352,128,696,704,512,84.385476,63.257585
174,352,256,174,352,512,68.420571,66.202737
174,352,256,174,704,512,71.871929,56.911338
174,352,256,348,352,512,77.907464,71.015467
174,352,256,348,704,256,80.766915,67.383105
174,352,256,348,704,512,80.251671,66.376081
174,352,256,522,352,512,79.333897,60.492897
174,352,256,522,704,256,82.732001,61.413445
174,352,256,522,704,512,81.150598,56.760810
174,352,256,696,352,256,82.018285,65.747535
174,352,256,696,352,512,81.979913,72.023795
174,352,256,696,704,256,85.365409,57.559675
174,352,256,696,704,512,84.944881,67.235961
246,160,128,246,320,512,73.336889,66.808645
246,160,128,246,480,384,74.952274,71.735003
246,160,128,246,480,512,74.945287,77.321100
246,160,128,246,640,384,76.892552,64.382017
246,160,128,246,640,512,73.211498,63.252318
246,160,128,492,160,512,72.053972,80.327914
246,160,128,492,320,384,81.474518,65.691352
246,160,128,492,320,512,80.124227,73.231718
246,160,128,492,480,384,82.916229,77.180590
246,160,128,492,480,512,82.346021,74.212080
246,160,128,492,640,256,82.338063,62.264904
246,160,128,492,640,384,82.658361,62.654312
246,160,128,492,640,512,82.002122,61.824283
246,160,128,738,160,384,74.296081,79.270268
246,160,128,738,160,512,72.192559,77.900808
246,160,128,738,320,256,80.270594,70.399091
246,160,128,738,320,384,81.672789,65.912029
246,160,128,738,320,512,80.665036,66.049180
246,160,128,738,480,256,83.538772,71.430642
246,160,128,738,480,384,84.183376,72.684308
246,160,128,738,480,512,83.203660,73.514299
246,160,128,738,640,256,84.220305,61.374095
246,160,128,738,640,384,85.766193,58.098007
246,160,128,738,640,512,83.243238,60.446408
246,160,256,246,320,512,73.279373,59.444885
246,160,256,246,480,512,73.152628,70.008830
246,160,256,246,640,512,74.764558,66.902224
246,160,256,492,160,512,72.303349,80.240047
246,160,256,492,320,512,78.918134,66.848500
246,160,256,492,480,512,79.370091,68.266519
246,160,256,492,640,256,83.264498,62.910165
246,160,256,492,640,512,82.146765,65.111595
246,160,256,738,160,512,72.214138,77.163358
246,160,256,738,320,256,79.558045,68.319668
246,160,256,738,320,512,80.742947,66.079339
246,160,256,738,480,256,82.534252,63.584718
246,160,256,738,480,512,82.438455,68.517804
246,160,256,738,640,256,84.220305,68.017356
246,160,256,738,640,512,84.227965,65.425209
246,288,128,246,288,512,72.493790,76.673924
246,288,128,246,576,384,73.531406,66.752406
246,288,128,246,576,512,74.736863,66.884468
246,288,128,492,288,384,80.203278,79.174262
246,288,128,492,288,512,78.660158,78.630203
246,288,128,492,576,256,83.144134,62.549016
246,288,128,492,576,384,83.694927,65.115415
246,288,128,492,576,512,82.457906,64.358684
246,288,128,738,288,256,79.284129,78.733523
246,288,128,738,288,384,80.916919,78.096840
246,288,128,738,288,512,78.873164,75.253663
246,288,128,738,576,256,82.952255,64.236280
246,288,128,738,576,384,85.600669,64.796041
246,288,128,738,576,512,83.591405,59.549077
246,288,256,246,288,512,71.677442,73.874981
246,288,256,246,576,512,74.602879,62.106798
246,288,256,492,288,512,77.709666,72.777023
246,288,256,492,576,256,83.297027,68.295848
246,288,256,492,576,512,82.411087,67.360725
246,288,256,738,288,256,79.492921,74.118542
246,288,256,738,288,512,79.652114,72.558909
246,288,256,738,576,256,84.120747,62.597747
246,288,256,738,576,512,82.592940,66.530256
246,352,128,246,352,512,74.036715,83.009666
246,352,128,246,704,384,75.560512,65.654505
246,352,128,246,704,512,75.134810,64.994676
246,352,128,492,352,384,81.131955,79.879401
246,352,128,492,352,512,79.965116,76.057595
246,352,128,492,704,256,83.249856,63.533638
246,352,128,492,704,384,84.360832,63.760251
246,352,128,492,704,512,82.177709,63.170983
246,352,128,738,352,256,80.636335,77.459234
246,352,128,738,352,384,82.601280,77.757457
246,352,128,738,352,512,80.308418,76.206415
246,352,128,738,704,256,84.634820,58.056665
246,352,128,738,704,384,85.880125,63.421572
246,352,128,738,704,512,83.335049,62.413278
246,352,256,246,352,512,74.057215,67.600818
246,352,256,246,704,512,75.144264,67.411624
246,352,256,492,352,512,79.049357,64.627512
246,352,256,492,704,256,83.530049,67.242050
246,352,256,492,704,512,83.536458,61.937747
246,352,256,738,352,256,80.552321,65.661081
246,352,256,738,352,512,80.610593,70.409600
246,352,256,738,704,256,84.251408,67.429843
246,352,256,738,704,512,83.053306,66.382758
294,160,128,294,320,512,74.189038,66.565017
294,160,128,294,480,384,76.905121,79.542951
294,160,128,294,480,512,76.452531,78.187861
294,160,128,294,640,384,78.441563,63.826846
294,160,128,294,640,512,77.280837,54.284651
294,160,128,588,160,384,74.064744,81.094826
294,160,128,588,160,512,73.676204,76.185425
294,160,128,588,320,384,81.471710,72.251105
294,160,128,588,320,512,79.580107,67.678752
294,160,128,588,480,256,82.607293,75.588881
294,160,128,588,480,384,84.593603,77.286449
294,160,128,588,480,512,82.776658,70.351156
294,160,128,588,640,256,84.720693,58.642558
294,160,128,588,640,384,84.406189,62.071551
294,160,128,588,640,512,83.982894,60.856424
294,160,256,294,320,512,73.824713,67.053052
294,160,256,294,480,512,77.133115,66.787211
294,160,256,294,640,512,76.761463,60.911512
294,160,256,588,160,512,73.173542,78.333987
294,160,256,588,320,512,80.027901,65.633570
294,160,256,588,480,256,83.742697,63.510226
294,160,256,588,480,512,82.474754,67.576326
294,160,256,588,640,256,84.074034,62.615302
294,160,256,588,640,512,83.117939,64.743790
294,288,128,294,288,512,73.120434,80.918543
294,288,128,294,576,384,77.548108,66.470039
294,288,128,294,576,512,76.511758,65.344378
294,288,128,588,288,384,80.953631,79.598835
294,288,128,588,288,512,78.877028,78.937304
294,288,128,588,576,256,83.945530,56.561925
294,288,128,588,576,384,83.866549,65.009269
294,288,128,588,576,512,81.523904,63.596140
294,288,256,294,288,512,73.502313,73.437169
294,288,256,294,576,512,77.384331,57.668138
294,288,256,588,288,512,80.187703,63.041673
294,288,256,588,576,256,83.596118,67.866733
294,288,256,588,576,512,81.878473,61.439345
294,352,128,294,352,512,74.804665,81.672427
294,352,128,294,704,384,78.782798,64.534344
294,352,128,294,704,512,77.215625,62.847075
294,352,128,588,352,384,82.595392,81.043084
294,352,128,588,352,512,81.054873,71.347401
294,352,128,588,704,256,84.872949,54.972400
294,352,128,588,704,384,86.291985,63.844994
294,352,128,588,704,512,83.819282,62.936493
318,160,128,318,320,512,75.475582,67.320232
318,160,128,318,480,384,77.128857,79.238965
318,160,128,318,480,512,76.862481,75.009859
318,160,128,318,640,384,77.651999,59.000881
318,160,128,318,640,512,78.793208,62.629620
318,160,128,636,160,384,74.583601,81.605594
318,160,128,636,160,512,74.277847,76.357164
318,160,128,636,320,384,82.808597,72.549834
318,160,128,636,320,512,80.111456,63.602484
318,160,128,636,480,256,84.076765,74.474567
318,160,128,636,480,384,83.417642,76.680494
318,160,128,636,480,512,82.891636,72.914168
318,160,128,636,640,256,85.079922,62.866876
318,160,128,636,640,384,84.487470,61.485600
318,160,128,636,640,512,84.498008,57.236432
318,160,256,318,320,512,74.987116,57.624946
318,160,256,318,480,512,77.715157,68.846478
318,160,256,318,640,512,78.205992,66.847784
318,160,256,636,160,512,72.852690,75.778209
318,160,256,636,320,512,81.350445,61.474936
318,160,256,636,480,256,83.628962,63.809825
318,160,256,636,480,512,82.426336,66.544698
318,160,256,636,640,256,85.032511,67.933564
318,160,256,636,640,512,83.399080,63.686736
318,288,128,318,288,512,73.692331,79.445864
318,288,128,318,576,384,78.830760,63.315648
318,288,128,318,576,512,76.967307,61.582207
318,288,128,636,288,384,81.137362,79.267684
318,288,128,636,288,512,79.102257,76.309547
318,288,128,636,576,256,84.025776,64.841745
318,288,128,636,576,384,83.155277,64.811904
318,288,128,636,576,512,82.632231,63.241692
318,352,128,318,352,512,75.220972,75.720400
318,352,128,318,704,384,78.784500,64.469050
318,352,128,318,704,512,78.621666,59.387780
318,352,128,636,352,384,82.002969,78.664561
318,352,128,636,352,512,80.319921,77.146813
318,352,128,636,704,256,85.254002,54.820848
318,352,128,636,704,384,86.627965,54.823905
318,352,128,636,704,512,82.971744,58.133260
