Tile scheme :
[V j; U (2, j); U (6, i); S (256, k); Pack_var [k]; A i; A k; A j]
[(6, 16, 256); (6, 32, 256); (6, 48, 256); (6, 64, 256); (6, 80, 256);
  (6, 96, 256); (6, 112, 256); (6, 128, 256); (6, 144, 256); (6, 160, 256);
  (12, 16, 256); (12, 32, 256); (12, 48, 256); (12, 64, 256); (12, 80, 256);
  (12, 96, 256); (12, 112, 256); (12, 128, 256); (12, 144, 256);
  (12, 160, 256); (18, 16, 256); (18, 32, 256); (18, 48, 256); (18, 64, 256);
  (18, 80, 256); (18, 96, 256); (18, 112, 256); (18, 128, 256);
  (18, 144, 256); (18, 160, 256); (24, 16, 256); (24, 32, 256);
  (24, 48, 256); (24, 64, 256); (24, 80, 256); (24, 96, 256); (24, 112, 256);
  (24, 128, 256); (24, 144, 256); (24, 160, 256); (30, 16, 256);
  (30, 32, 256); (30, 48, 256); (30, 64, 256); (30, 80, 256); (30, 96, 256);
  (30, 112, 256); (30, 128, 256); (30, 144, 256); (30, 160, 256);
  (36, 16, 256); (36, 32, 256); (36, 48, 256); (36, 64, 256); (36, 80, 256);
  (36, 96, 256); (36, 112, 256); (36, 128, 256); (36, 144, 256);
  (36, 160, 256); (42, 16, 256); (42, 32, 256); (42, 48, 256); (42, 64, 256);
  (42, 80, 256); (42, 96, 256); (42, 112, 256); (42, 128, 256);
  (42, 144, 256); (42, 160, 256); (48, 16, 256); (48, 32, 256);
  (48, 48, 256); (48, 64, 256); (48, 80, 256); (48, 96, 256); (48, 112, 256);
  (48, 128, 256); (48, 144, 256); (48, 160, 256); (54, 16, 256);
  (54, 32, 256); (54, 48, 256); (54, 64, 256); (54, 80, 256); (54, 96, 256);
  (54, 112, 256); (54, 128, 256); (54, 144, 256); (54, 160, 256);
  (60, 16, 256); (60, 32, 256); (60, 48, 256); (60, 64, 256); (60, 80, 256);
  (60, 96, 256); (60, 112, 256); (60, 128, 256); (60, 144, 256);
  (60, 160, 256)]
PROBLEM SIZE: i: 6, j : 16, k : 256

BLIS mean : {time : 1.095700e-05 sec, 33932 (3.393200e+04) cycles, ratio peak/perf: 2.263350 %}
BLIS median : {time : 1.107400e-05 sec, 34302 (3.430200e+04) cycles, ratio peak/perf: 2.238936 %}
GEN mean : {time : 1.009000e-06 sec, 3128 (3.128000e+03) cycles, ratio peak/perf: 24.552429 %}
GEN median : {time : 1.009000e-06 sec, 3120 (3.120000e+03) cycles, ratio peak/perf: 24.615385 %}


PROBLEM SIZE: i: 6, j : 32, k : 256

BLIS mean : {time : 1.072500e-05 sec, 33245 (3.324500e+04) cycles, ratio peak/perf: 4.620244 %}
BLIS median : {time : 1.069900e-05 sec, 33151 (3.315100e+04) cycles, ratio peak/perf: 4.633344 %}
GEN mean : {time : 1.744000e-06 sec, 5423 (5.423000e+03) cycles, ratio peak/perf: 28.323807 %}
GEN median : {time : 1.742000e-06 sec, 5422 (5.422000e+03) cycles, ratio peak/perf: 28.329029 %}


PROBLEM SIZE: i: 6, j : 48, k : 256

BLIS mean : {time : 1.423800e-05 sec, 44098 (4.409800e+04) cycles, ratio peak/perf: 5.224727 %}
BLIS median : {time : 1.412100e-05 sec, 43735 (4.373500e+04) cycles, ratio peak/perf: 5.268092 %}
GEN mean : {time : 2.382000e-06 sec, 7400 (7.400000e+03) cycles, ratio peak/perf: 31.135136 %}
GEN median : {time : 2.366000e-06 sec, 7345 (7.345000e+03) cycles, ratio peak/perf: 31.368279 %}


PROBLEM SIZE: i: 6, j : 64, k : 256

BLIS mean : {time : 1.402300e-05 sec, 43432 (4.343200e+04) cycles, ratio peak/perf: 7.073126 %}
BLIS median : {time : 1.392900e-05 sec, 43125 (4.312500e+04) cycles, ratio peak/perf: 7.123478 %}
GEN mean : {time : 3.006000e-06 sec, 9331 (9.331000e+03) cycles, ratio peak/perf: 32.922516 %}
GEN median : {time : 3.000000e-06 sec, 9318 (9.318000e+03) cycles, ratio peak/perf: 32.968449 %}


PROBLEM SIZE: i: 6, j : 80, k : 256

BLIS mean : {time : 1.738200e-05 sec, 53826 (5.382600e+04) cycles, ratio peak/perf: 7.134099 %}
BLIS median : {time : 1.729800e-05 sec, 53567 (5.356700e+04) cycles, ratio peak/perf: 7.168592 %}
GEN mean : {time : 3.285000e-06 sec, 10191 (1.019100e+04) cycles, ratio peak/perf: 37.680305 %}
GEN median : {time : 3.274000e-06 sec, 10140 (1.014000e+04) cycles, ratio peak/perf: 37.869823 %}


PROBLEM SIZE: i: 6, j : 96, k : 256

BLIS mean : {time : 1.725400e-05 sec, 53429 (5.342900e+04) cycles, ratio peak/perf: 8.624530 %}
BLIS median : {time : 1.720200e-05 sec, 53263 (5.326300e+04) cycles, ratio peak/perf: 8.651409 %}
GEN mean : {time : 3.920000e-06 sec, 12162 (1.216200e+04) cycles, ratio peak/perf: 37.888504 %}
GEN median : {time : 3.908000e-06 sec, 12116 (1.211600e+04) cycles, ratio peak/perf: 38.032352 %}


PROBLEM SIZE: i: 6, j : 112, k : 256

BLIS mean : {time : 2.060300e-05 sec, 63794 (6.379400e+04) cycles, ratio peak/perf: 8.427125 %}
BLIS median : {time : 2.057700e-05 sec, 63716 (6.371600e+04) cycles, ratio peak/perf: 8.437441 %}
GEN mean : {time : 4.864000e-06 sec, 15088 (1.508800e+04) cycles, ratio peak/perf: 35.630966 %}
GEN median : {time : 4.844000e-06 sec, 15029 (1.502900e+04) cycles, ratio peak/perf: 35.770844 %}


PROBLEM SIZE: i: 6, j : 128, k : 256

BLIS mean : {time : 2.049500e-05 sec, 63462 (6.346200e+04) cycles, ratio peak/perf: 9.681384 %}
BLIS median : {time : 2.040900e-05 sec, 63202 (6.320200e+04) cycles, ratio peak/perf: 9.721211 %}
GEN mean : {time : 5.502000e-06 sec, 17061 (1.706100e+04) cycles, ratio peak/perf: 36.011955 %}
GEN median : {time : 5.480000e-06 sec, 16996 (1.699600e+04) cycles, ratio peak/perf: 36.149681 %}


PROBLEM SIZE: i: 6, j : 144, k : 256

BLIS mean : {time : 2.389000e-05 sec, 73974 (7.397400e+04) cycles, ratio peak/perf: 9.343823 %}
BLIS median : {time : 2.374000e-05 sec, 73513 (7.351300e+04) cycles, ratio peak/perf: 9.402419 %}
GEN mean : {time : 6.159000e-06 sec, 19095 (1.909500e+04) cycles, ratio peak/perf: 36.197956 %}
GEN median : {time : 6.110000e-06 sec, 18944 (1.894400e+04) cycles, ratio peak/perf: 36.486488 %}


PROBLEM SIZE: i: 6, j : 160, k : 256

BLIS mean : {time : 2.368200e-05 sec, 73358 (7.335800e+04) cycles, ratio peak/perf: 10.469206 %}
BLIS median : {time : 2.351700e-05 sec, 72839 (7.283900e+04) cycles, ratio peak/perf: 10.543802 %}
GEN mean : {time : 6.856000e-06 sec, 21246 (2.124600e+04) cycles, ratio peak/perf: 36.147980 %}
GEN median : {time : 6.898000e-06 sec, 21378 (2.137800e+04) cycles, ratio peak/perf: 35.924782 %}


PROBLEM SIZE: i: 12, j : 16, k : 256

BLIS mean : {time : 8.817000e-06 sec, 27335 (2.733500e+04) cycles, ratio peak/perf: 5.619170 %}
BLIS median : {time : 8.819000e-06 sec, 27340 (2.734000e+04) cycles, ratio peak/perf: 5.618142 %}
GEN mean : {time : 1.537000e-06 sec, 4771 (4.771000e+03) cycles, ratio peak/perf: 32.194508 %}
GEN median : {time : 1.535000e-06 sec, 4771 (4.771000e+03) cycles, ratio peak/perf: 32.194508 %}


PROBLEM SIZE: i: 12, j : 32, k : 256

BLIS mean : {time : 8.380000e-06 sec, 25953 (2.595300e+04) cycles, ratio peak/perf: 11.836782 %}
BLIS median : {time : 8.383000e-06 sec, 25959 (2.595900e+04) cycles, ratio peak/perf: 11.834046 %}
GEN mean : {time : 2.787000e-06 sec, 8655 (8.655000e+03) cycles, ratio peak/perf: 35.493935 %}
GEN median : {time : 2.771000e-06 sec, 8610 (8.610000e+03) cycles, ratio peak/perf: 35.679443 %}


PROBLEM SIZE: i: 12, j : 48, k : 256

BLIS mean : {time : 1.191100e-05 sec, 36914 (3.691400e+04) cycles, ratio peak/perf: 12.483068 %}
BLIS median : {time : 1.190700e-05 sec, 36900 (3.690000e+04) cycles, ratio peak/perf: 12.487804 %}
GEN mean : {time : 3.815000e-06 sec, 11836 (1.183600e+04) cycles, ratio peak/perf: 38.932072 %}
GEN median : {time : 3.806000e-06 sec, 11793 (1.179300e+04) cycles, ratio peak/perf: 39.074028 %}


PROBLEM SIZE: i: 12, j : 64, k : 256

BLIS mean : {time : 1.144800e-05 sec, 35452 (3.545200e+04) cycles, ratio peak/perf: 17.330475 %}
BLIS median : {time : 1.142600e-05 sec, 35381 (3.538100e+04) cycles, ratio peak/perf: 17.365253 %}
GEN mean : {time : 5.043000e-06 sec, 15642 (1.564200e+04) cycles, ratio peak/perf: 39.278866 %}
GEN median : {time : 5.045000e-06 sec, 15635 (1.563500e+04) cycles, ratio peak/perf: 39.296452 %}


PROBLEM SIZE: i: 12, j : 80, k : 256

BLIS mean : {time : 1.502000e-05 sec, 46508 (4.650800e+04) cycles, ratio peak/perf: 16.513288 %}
BLIS median : {time : 1.495900e-05 sec, 46325 (4.632500e+04) cycles, ratio peak/perf: 16.578522 %}
GEN mean : {time : 6.008000e-06 sec, 18622 (1.862200e+04) cycles, ratio peak/perf: 41.241543 %}
GEN median : {time : 5.982000e-06 sec, 18525 (1.852500e+04) cycles, ratio peak/perf: 41.457489 %}


PROBLEM SIZE: i: 12, j : 96, k : 256

BLIS mean : {time : 1.461100e-05 sec, 45244 (4.524400e+04) cycles, ratio peak/perf: 20.369553 %}
BLIS median : {time : 1.463700e-05 sec, 45324 (4.532400e+04) cycles, ratio peak/perf: 20.333597 %}
GEN mean : {time : 7.313000e-06 sec, 22670 (2.267000e+04) cycles, ratio peak/perf: 40.652843 %}
GEN median : {time : 7.295000e-06 sec, 22591 (2.259100e+04) cycles, ratio peak/perf: 40.795006 %}


PROBLEM SIZE: i: 12, j : 112, k : 256

BLIS mean : {time : 1.806000e-05 sec, 55928 (5.592800e+04) cycles, ratio peak/perf: 19.224718 %}
BLIS median : {time : 1.799700e-05 sec, 55724 (5.572400e+04) cycles, ratio peak/perf: 19.295097 %}
GEN mean : {time : 8.222000e-06 sec, 25483 (2.548300e+04) cycles, ratio peak/perf: 42.192833 %}
GEN median : {time : 8.188000e-06 sec, 25366 (2.536600e+04) cycles, ratio peak/perf: 42.387447 %}


PROBLEM SIZE: i: 12, j : 128, k : 256

BLIS mean : {time : 1.771800e-05 sec, 54866 (5.486600e+04) cycles, ratio peak/perf: 22.396383 %}
BLIS median : {time : 1.768300e-05 sec, 54752 (5.475200e+04) cycles, ratio peak/perf: 22.443016 %}
GEN mean : {time : 9.593000e-06 sec, 29730 (2.973000e+04) cycles, ratio peak/perf: 41.331989 %}
GEN median : {time : 9.623000e-06 sec, 29799 (2.979900e+04) cycles, ratio peak/perf: 41.236282 %}


PROBLEM SIZE: i: 12, j : 144, k : 256

BLIS mean : {time : 2.115200e-05 sec, 65495 (6.549500e+04) cycles, ratio peak/perf: 21.106955 %}
BLIS median : {time : 2.109600e-05 sec, 65324 (6.532400e+04) cycles, ratio peak/perf: 21.162207 %}
GEN mean : {time : 1.046000e-05 sec, 32409 (3.240900e+04) cycles, ratio peak/perf: 42.654819 %}
GEN median : {time : 1.043900e-05 sec, 32344 (3.234400e+04) cycles, ratio peak/perf: 42.740540 %}


PROBLEM SIZE: i: 12, j : 160, k : 256

BLIS mean : {time : 2.072300e-05 sec, 64166 (6.416600e+04) cycles, ratio peak/perf: 23.937912 %}
BLIS median : {time : 2.071700e-05 sec, 64156 (6.415600e+04) cycles, ratio peak/perf: 23.941643 %}
GEN mean : {time : 1.197400e-05 sec, 37130 (3.713000e+04) cycles, ratio peak/perf: 41.368164 %}
GEN median : {time : 1.196300e-05 sec, 37059 (3.705900e+04) cycles, ratio peak/perf: 41.447422 %}


PROBLEM SIZE: i: 18, j : 16, k : 256

BLIS mean : {time : 1.302100e-05 sec, 40324 (4.032400e+04) cycles, ratio peak/perf: 5.713719 %}
BLIS median : {time : 1.302100e-05 sec, 40323 (4.032300e+04) cycles, ratio peak/perf: 5.713861 %}
GEN mean : {time : 2.056000e-06 sec, 6388 (6.388000e+03) cycles, ratio peak/perf: 36.067627 %}
GEN median : {time : 2.047000e-06 sec, 6361 (6.361000e+03) cycles, ratio peak/perf: 36.220718 %}


PROBLEM SIZE: i: 18, j : 32, k : 256

BLIS mean : {time : 1.266900e-05 sec, 39272 (3.927200e+04) cycles, ratio peak/perf: 11.733551 %}
BLIS median : {time : 1.269700e-05 sec, 39385 (3.938500e+04) cycles, ratio peak/perf: 11.699885 %}
GEN mean : {time : 3.883000e-06 sec, 12049 (1.204900e+04) cycles, ratio peak/perf: 38.243839 %}
GEN median : {time : 3.878000e-06 sec, 12031 (1.203100e+04) cycles, ratio peak/perf: 38.301056 %}


PROBLEM SIZE: i: 18, j : 48, k : 256

BLIS mean : {time : 1.724800e-05 sec, 53405 (5.340500e+04) cycles, ratio peak/perf: 12.942609 %}
BLIS median : {time : 1.715300e-05 sec, 53112 (5.311200e+04) cycles, ratio peak/perf: 13.014009 %}
GEN mean : {time : 5.386000e-06 sec, 16699 (1.669900e+04) cycles, ratio peak/perf: 41.391701 %}
GEN median : {time : 5.381000e-06 sec, 16684 (1.668400e+04) cycles, ratio peak/perf: 41.428913 %}


PROBLEM SIZE: i: 18, j : 64, k : 256

BLIS mean : {time : 1.705400e-05 sec, 52806 (5.280600e+04) cycles, ratio peak/perf: 17.452562 %}
BLIS median : {time : 1.704000e-05 sec, 52763 (5.276300e+04) cycles, ratio peak/perf: 17.466785 %}
GEN mean : {time : 7.293000e-06 sec, 22608 (2.260800e+04) cycles, ratio peak/perf: 40.764332 %}
GEN median : {time : 7.289000e-06 sec, 22599 (2.259900e+04) cycles, ratio peak/perf: 40.780567 %}


PROBLEM SIZE: i: 18, j : 80, k : 256

BLIS mean : {time : 2.147100e-05 sec, 66485 (6.648500e+04) cycles, ratio peak/perf: 17.327217 %}
BLIS median : {time : 2.139800e-05 sec, 66270 (6.627000e+04) cycles, ratio peak/perf: 17.383430 %}
GEN mean : {time : 8.644000e-06 sec, 26793 (2.679300e+04) cycles, ratio peak/perf: 42.996304 %}
GEN median : {time : 8.623000e-06 sec, 26719 (2.671900e+04) cycles, ratio peak/perf: 43.115387 %}


PROBLEM SIZE: i: 18, j : 96, k : 256

BLIS mean : {time : 2.126900e-05 sec, 65851 (6.585100e+04) cycles, ratio peak/perf: 20.992847 %}
BLIS median : {time : 2.124900e-05 sec, 65792 (6.579200e+04) cycles, ratio peak/perf: 21.011673 %}
GEN mean : {time : 1.071200e-05 sec, 33187 (3.318700e+04) cycles, ratio peak/perf: 41.654865 %}
GEN median : {time : 1.070600e-05 sec, 33153 (3.315300e+04) cycles, ratio peak/perf: 41.697582 %}


PROBLEM SIZE: i: 18, j : 112, k : 256

BLIS mean : {time : 2.575000e-05 sec, 79726 (7.972600e+04) cycles, ratio peak/perf: 20.229286 %}
BLIS median : {time : 2.582800e-05 sec, 79972 (7.997200e+04) cycles, ratio peak/perf: 20.167059 %}
GEN mean : {time : 1.194200e-05 sec, 37010 (3.701000e+04) cycles, ratio peak/perf: 43.577412 %}
GEN median : {time : 1.190600e-05 sec, 36899 (3.689900e+04) cycles, ratio peak/perf: 43.708500 %}


PROBLEM SIZE: i: 18, j : 128, k : 256

BLIS mean : {time : 2.543000e-05 sec, 78737 (7.873700e+04) cycles, ratio peak/perf: 23.409578 %}
BLIS median : {time : 2.533600e-05 sec, 78442 (7.844200e+04) cycles, ratio peak/perf: 23.497616 %}
GEN mean : {time : 1.397700e-05 sec, 43309 (4.330900e+04) cycles, ratio peak/perf: 42.559284 %}
GEN median : {time : 1.395200e-05 sec, 43231 (4.323100e+04) cycles, ratio peak/perf: 42.636070 %}


PROBLEM SIZE: i: 18, j : 144, k : 256

BLIS mean : {time : 2.991800e-05 sec, 92638 (9.263800e+04) cycles, ratio peak/perf: 22.383904 %}
BLIS median : {time : 2.991800e-05 sec, 92636 (9.263600e+04) cycles, ratio peak/perf: 22.384386 %}
GEN mean : {time : 1.524700e-05 sec, 47261 (4.726100e+04) cycles, ratio peak/perf: 43.875500 %}
GEN median : {time : 1.526100e-05 sec, 47268 (4.726800e+04) cycles, ratio peak/perf: 43.869003 %}


PROBLEM SIZE: i: 18, j : 160, k : 256

BLIS mean : {time : 2.969600e-05 sec, 91987 (9.198700e+04) cycles, ratio peak/perf: 25.047018 %}
BLIS median : {time : 2.978000e-05 sec, 92243 (9.224300e+04) cycles, ratio peak/perf: 24.977505 %}
GEN mean : {time : 1.761400e-05 sec, 54601 (5.460100e+04) cycles, ratio peak/perf: 42.197029 %}
GEN median : {time : 1.758500e-05 sec, 54547 (5.454700e+04) cycles, ratio peak/perf: 42.238804 %}


PROBLEM SIZE: i: 24, j : 16, k : 256

BLIS mean : {time : 1.085700e-05 sec, 33620 (3.362000e+04) cycles, ratio peak/perf: 9.137418 %}
BLIS median : {time : 1.084800e-05 sec, 33586 (3.358600e+04) cycles, ratio peak/perf: 9.146668 %}
GEN mean : {time : 2.612000e-06 sec, 8111 (8.111000e+03) cycles, ratio peak/perf: 37.874493 %}
GEN median : {time : 2.604000e-06 sec, 8101 (8.101000e+03) cycles, ratio peak/perf: 37.921246 %}


PROBLEM SIZE: i: 24, j : 32, k : 256

BLIS mean : {time : 1.034600e-05 sec, 32038 (3.203800e+04) cycles, ratio peak/perf: 19.177227 %}
BLIS median : {time : 1.036100e-05 sec, 32072 (3.207200e+04) cycles, ratio peak/perf: 19.156897 %}
GEN mean : {time : 5.037000e-06 sec, 15623 (1.562300e+04) cycles, ratio peak/perf: 39.326633 %}
GEN median : {time : 5.016000e-06 sec, 15564 (1.556400e+04) cycles, ratio peak/perf: 39.475712 %}


PROBLEM SIZE: i: 24, j : 48, k : 256

BLIS mean : {time : 1.504400e-05 sec, 46612 (4.661200e+04) cycles, ratio peak/perf: 19.771732 %}
BLIS median : {time : 1.500000e-05 sec, 46474 (4.647400e+04) cycles, ratio peak/perf: 19.830442 %}
GEN mean : {time : 6.968000e-06 sec, 21612 (2.161200e+04) cycles, ratio peak/perf: 42.642975 %}
GEN median : {time : 6.955000e-06 sec, 21571 (2.157100e+04) cycles, ratio peak/perf: 42.724026 %}


PROBLEM SIZE: i: 24, j : 64, k : 256

BLIS mean : {time : 1.441700e-05 sec, 44643 (4.464300e+04) cycles, ratio peak/perf: 27.525032 %}
BLIS median : {time : 1.439800e-05 sec, 44584 (4.458400e+04) cycles, ratio peak/perf: 27.561457 %}
GEN mean : {time : 9.473000e-06 sec, 29351 (2.935100e+04) cycles, ratio peak/perf: 41.865696 %}
GEN median : {time : 9.458000e-06 sec, 29295 (2.929500e+04) cycles, ratio peak/perf: 41.945724 %}


PROBLEM SIZE: i: 24, j : 80, k : 256

BLIS mean : {time : 1.918900e-05 sec, 59439 (5.943900e+04) cycles, ratio peak/perf: 25.841619 %}
BLIS median : {time : 1.917700e-05 sec, 59392 (5.939200e+04) cycles, ratio peak/perf: 25.862068 %}
GEN mean : {time : 1.123600e-05 sec, 34841 (3.484100e+04) cycles, ratio peak/perf: 44.085991 %}
GEN median : {time : 1.124400e-05 sec, 34850 (3.485000e+04) cycles, ratio peak/perf: 44.074604 %}


PROBLEM SIZE: i: 24, j : 96, k : 256

BLIS mean : {time : 1.865900e-05 sec, 57784 (5.778400e+04) cycles, ratio peak/perf: 31.898104 %}
BLIS median : {time : 1.866800e-05 sec, 57814 (5.781400e+04) cycles, ratio peak/perf: 31.881552 %}
GEN mean : {time : 1.402400e-05 sec, 43473 (4.347300e+04) cycles, ratio peak/perf: 42.398731 %}
GEN median : {time : 1.402800e-05 sec, 43465 (4.346500e+04) cycles, ratio peak/perf: 42.406532 %}


PROBLEM SIZE: i: 24, j : 112, k : 256

BLIS mean : {time : 2.330600e-05 sec, 72210 (7.221000e+04) cycles, ratio peak/perf: 29.779808 %}
BLIS median : {time : 2.328800e-05 sec, 72188 (7.218800e+04) cycles, ratio peak/perf: 29.788885 %}
GEN mean : {time : 1.558000e-05 sec, 48297 (4.829700e+04) cycles, ratio peak/perf: 44.524506 %}
GEN median : {time : 1.559500e-05 sec, 48311 (4.831100e+04) cycles, ratio peak/perf: 44.511600 %}


PROBLEM SIZE: i: 24, j : 128, k : 256

BLIS mean : {time : 2.267400e-05 sec, 70210 (7.021000e+04) cycles, ratio peak/perf: 35.003559 %}
BLIS median : {time : 2.267500e-05 sec, 70210 (7.021000e+04) cycles, ratio peak/perf: 35.003559 %}
GEN mean : {time : 1.851700e-05 sec, 57382 (5.738200e+04) cycles, ratio peak/perf: 42.828762 %}
GEN median : {time : 1.857100e-05 sec, 57589 (5.758900e+04) cycles, ratio peak/perf: 42.674816 %}


PROBLEM SIZE: i: 24, j : 144, k : 256

BLIS mean : {time : 2.736000e-05 sec, 84725 (8.472500e+04) cycles, ratio peak/perf: 32.632633 %}
BLIS median : {time : 2.733600e-05 sec, 84696 (8.469600e+04) cycles, ratio peak/perf: 32.643810 %}
GEN mean : {time : 2.001100e-05 sec, 62056 (6.205600e+04) cycles, ratio peak/perf: 44.553307 %}
GEN median : {time : 1.996800e-05 sec, 61916 (6.191600e+04) cycles, ratio peak/perf: 44.654049 %}


PROBLEM SIZE: i: 24, j : 160, k : 256

BLIS mean : {time : 2.686000e-05 sec, 83167 (8.316700e+04) cycles, ratio peak/perf: 36.937729 %}
BLIS median : {time : 2.681300e-05 sec, 83018 (8.301800e+04) cycles, ratio peak/perf: 37.004025 %}
GEN mean : {time : 2.297500e-05 sec, 71239 (7.123900e+04) cycles, ratio peak/perf: 43.122448 %}
GEN median : {time : 2.328000e-05 sec, 72173 (7.217300e+04) cycles, ratio peak/perf: 42.564392 %}


PROBLEM SIZE: i: 30, j : 16, k : 256

BLIS mean : {time : 1.503500e-05 sec, 46559 (4.655900e+04) cycles, ratio peak/perf: 8.247600 %}
BLIS median : {time : 1.504100e-05 sec, 46567 (4.656700e+04) cycles, ratio peak/perf: 8.246183 %}
GEN mean : {time : 3.109000e-06 sec, 9644 (9.644000e+03) cycles, ratio peak/perf: 39.817505 %}
GEN median : {time : 3.113000e-06 sec, 9673 (9.673000e+03) cycles, ratio peak/perf: 39.698128 %}


PROBLEM SIZE: i: 30, j : 32, k : 256

BLIS mean : {time : 1.459700e-05 sec, 45197 (4.519700e+04) cycles, ratio peak/perf: 16.992279 %}
BLIS median : {time : 1.465300e-05 sec, 45378 (4.537800e+04) cycles, ratio peak/perf: 16.924501 %}
GEN mean : {time : 6.139000e-06 sec, 19028 (1.902800e+04) cycles, ratio peak/perf: 40.361572 %}
GEN median : {time : 6.145000e-06 sec, 19042 (1.904200e+04) cycles, ratio peak/perf: 40.331898 %}


PROBLEM SIZE: i: 30, j : 48, k : 256

BLIS mean : {time : 2.025300e-05 sec, 62715 (6.271500e+04) cycles, ratio peak/perf: 18.368811 %}
BLIS median : {time : 2.020000e-05 sec, 62553 (6.255300e+04) cycles, ratio peak/perf: 18.416384 %}
GEN mean : {time : 8.583000e-06 sec, 26600 (2.660000e+04) cycles, ratio peak/perf: 43.308270 %}
GEN median : {time : 8.544000e-06 sec, 26465 (2.646500e+04) cycles, ratio peak/perf: 43.529190 %}


PROBLEM SIZE: i: 30, j : 64, k : 256

BLIS mean : {time : 1.982800e-05 sec, 61420 (6.142000e+04) cycles, ratio peak/perf: 25.008141 %}
BLIS median : {time : 1.986900e-05 sec, 61551 (6.155100e+04) cycles, ratio peak/perf: 24.954916 %}
GEN mean : {time : 1.178600e-05 sec, 36516 (3.651600e+04) cycles, ratio peak/perf: 42.063751 %}
GEN median : {time : 1.179800e-05 sec, 36553 (3.655300e+04) cycles, ratio peak/perf: 42.021175 %}


PROBLEM SIZE: i: 30, j : 80, k : 256

BLIS mean : {time : 2.562100e-05 sec, 79333 (7.933300e+04) cycles, ratio peak/perf: 24.201782 %}
BLIS median : {time : 2.567700e-05 sec, 79510 (7.951000e+04) cycles, ratio peak/perf: 24.147905 %}
GEN mean : {time : 1.395000e-05 sec, 43235 (4.323500e+04) cycles, ratio peak/perf: 44.408466 %}
GEN median : {time : 1.397800e-05 sec, 43333 (4.333300e+04) cycles, ratio peak/perf: 44.308033 %}


PROBLEM SIZE: i: 30, j : 96, k : 256

BLIS mean : {time : 2.515700e-05 sec, 77892 (7.789200e+04) cycles, ratio peak/perf: 29.579418 %}
BLIS median : {time : 2.522400e-05 sec, 78108 (7.810800e+04) cycles, ratio peak/perf: 29.497620 %}
GEN mean : {time : 1.744500e-05 sec, 54082 (5.408200e+04) cycles, ratio peak/perf: 42.601974 %}
GEN median : {time : 1.742800e-05 sec, 53983 (5.398300e+04) cycles, ratio peak/perf: 42.680103 %}


PROBLEM SIZE: i: 30, j : 112, k : 256

BLIS mean : {time : 3.085500e-05 sec, 95540 (9.554000e+04) cycles, ratio peak/perf: 28.134813 %}
BLIS median : {time : 3.084500e-05 sec, 95504 (9.550400e+04) cycles, ratio peak/perf: 28.145418 %}
GEN mean : {time : 1.934700e-05 sec, 59990 (5.999000e+04) cycles, ratio peak/perf: 44.807468 %}
GEN median : {time : 1.933400e-05 sec, 59965 (5.996500e+04) cycles, ratio peak/perf: 44.826149 %}


PROBLEM SIZE: i: 30, j : 128, k : 256

BLIS mean : {time : 3.039600e-05 sec, 94114 (9.411400e+04) cycles, ratio peak/perf: 32.641266 %}
BLIS median : {time : 3.034800e-05 sec, 93972 (9.397200e+04) cycles, ratio peak/perf: 32.690590 %}
GEN mean : {time : 2.317000e-05 sec, 71838 (7.183800e+04) cycles, ratio peak/perf: 42.762882 %}
GEN median : {time : 2.316700e-05 sec, 71823 (7.182300e+04) cycles, ratio peak/perf: 42.771812 %}


PROBLEM SIZE: i: 30, j : 144, k : 256

BLIS mean : {time : 3.636100e-05 sec, 112615 (1.126150e+05) cycles, ratio peak/perf: 30.688629 %}
BLIS median : {time : 3.637900e-05 sec, 112653 (1.126530e+05) cycles, ratio peak/perf: 30.678278 %}
GEN mean : {time : 2.474400e-05 sec, 76719 (7.671900e+04) cycles, ratio peak/perf: 45.047512 %}
GEN median : {time : 2.475900e-05 sec, 76759 (7.675900e+04) cycles, ratio peak/perf: 45.024036 %}


PROBLEM SIZE: i: 30, j : 160, k : 256

BLIS mean : {time : 3.570900e-05 sec, 110561 (1.105610e+05) cycles, ratio peak/perf: 34.731956 %}
BLIS median : {time : 3.826200e-05 sec, 118452 (1.184520e+05) cycles, ratio peak/perf: 32.418194 %}
GEN mean : {time : 2.866400e-05 sec, 88822 (8.882200e+04) cycles, ratio peak/perf: 43.232533 %}
GEN median : {time : 2.895100e-05 sec, 89673 (8.967300e+04) cycles, ratio peak/perf: 42.822254 %}


PROBLEM SIZE: i: 36, j : 16, k : 256

BLIS mean : {time : 1.288100e-05 sec, 39888 (3.988800e+04) cycles, ratio peak/perf: 11.552346 %}
BLIS median : {time : 1.286200e-05 sec, 39829 (3.982900e+04) cycles, ratio peak/perf: 11.569460 %}
GEN mean : {time : 3.654000e-06 sec, 11339 (1.133900e+04) cycles, ratio peak/perf: 40.638504 %}
GEN median : {time : 3.654000e-06 sec, 11348 (1.134800e+04) cycles, ratio peak/perf: 40.606274 %}


PROBLEM SIZE: i: 36, j : 32, k : 256

BLIS mean : {time : 1.218700e-05 sec, 37736 (3.773600e+04) cycles, ratio peak/perf: 24.422302 %}
BLIS median : {time : 1.213800e-05 sec, 37601 (3.760100e+04) cycles, ratio peak/perf: 24.509987 %}
GEN mean : {time : 7.275000e-06 sec, 22551 (2.255100e+04) cycles, ratio peak/perf: 40.867367 %}
GEN median : {time : 7.271000e-06 sec, 22541 (2.254100e+04) cycles, ratio peak/perf: 40.885498 %}


PROBLEM SIZE: i: 36, j : 48, k : 256

BLIS mean : {time : 1.794700e-05 sec, 55597 (5.559700e+04) cycles, ratio peak/perf: 24.864651 %}
BLIS median : {time : 1.788500e-05 sec, 55417 (5.541700e+04) cycles, ratio peak/perf: 24.945414 %}
GEN mean : {time : 1.015800e-05 sec, 31474 (3.147400e+04) cycles, ratio peak/perf: 43.921967 %}
GEN median : {time : 1.015500e-05 sec, 31458 (3.145800e+04) cycles, ratio peak/perf: 43.944305 %}


PROBLEM SIZE: i: 36, j : 64, k : 256

BLIS mean : {time : 1.736300e-05 sec, 53784 (5.378400e+04) cycles, ratio peak/perf: 34.270416 %}
BLIS median : {time : 1.735900e-05 sec, 53767 (5.376700e+04) cycles, ratio peak/perf: 34.281250 %}
GEN mean : {time : 1.400400e-05 sec, 43386 (4.338600e+04) cycles, ratio peak/perf: 42.483749 %}
GEN median : {time : 1.406300e-05 sec, 43580 (4.358000e+04) cycles, ratio peak/perf: 42.294632 %}


PROBLEM SIZE: i: 36, j : 80, k : 256

BLIS mean : {time : 2.314300e-05 sec, 71657 (7.165700e+04) cycles, ratio peak/perf: 32.153175 %}
BLIS median : {time : 2.308000e-05 sec, 71458 (7.145800e+04) cycles, ratio peak/perf: 32.242718 %}
GEN mean : {time : 1.644600e-05 sec, 50990 (5.099000e+04) cycles, ratio peak/perf: 45.185329 %}
GEN median : {time : 1.644000e-05 sec, 51030 (5.103000e+04) cycles, ratio peak/perf: 45.149910 %}


PROBLEM SIZE: i: 36, j : 96, k : 256

BLIS mean : {time : 2.253900e-05 sec, 69806 (6.980600e+04) cycles, ratio peak/perf: 39.606911 %}
BLIS median : {time : 2.252100e-05 sec, 69737 (6.973700e+04) cycles, ratio peak/perf: 39.646099 %}
GEN mean : {time : 2.049500e-05 sec, 63532 (6.353200e+04) cycles, ratio peak/perf: 43.518227 %}
GEN median : {time : 2.079300e-05 sec, 64409 (6.440900e+04) cycles, ratio peak/perf: 42.925678 %}


PROBLEM SIZE: i: 36, j : 112, k : 256

BLIS mean : {time : 2.843100e-05 sec, 88029 (8.802900e+04) cycles, ratio peak/perf: 36.642471 %}
BLIS median : {time : 2.837300e-05 sec, 87859 (8.785900e+04) cycles, ratio peak/perf: 36.713371 %}
GEN mean : {time : 2.285100e-05 sec, 70844 (7.084400e+04) cycles, ratio peak/perf: 45.531025 %}
GEN median : {time : 2.278900e-05 sec, 70674 (7.067400e+04) cycles, ratio peak/perf: 45.640545 %}


PROBLEM SIZE: i: 36, j : 128, k : 256

BLIS mean : {time : 2.766000e-05 sec, 85639 (8.563900e+04) cycles, ratio peak/perf: 43.045807 %}
BLIS median : {time : 2.761200e-05 sec, 85505 (8.550500e+04) cycles, ratio peak/perf: 43.113270 %}
GEN mean : {time : 2.706800e-05 sec, 83900 (8.390000e+04) cycles, ratio peak/perf: 43.938023 %}
GEN median : {time : 2.763700e-05 sec, 85660 (8.566000e+04) cycles, ratio peak/perf: 43.035255 %}


PROBLEM SIZE: i: 36, j : 144, k : 256

BLIS mean : {time : 3.380100e-05 sec, 104652 (1.046520e+05) cycles, ratio peak/perf: 39.628483 %}
BLIS median : {time : 3.374400e-05 sec, 104429 (1.044290e+05) cycles, ratio peak/perf: 39.713108 %}
GEN mean : {time : 2.948200e-05 sec, 91383 (9.138300e+04) cycles, ratio peak/perf: 45.382622 %}
GEN median : {time : 2.943500e-05 sec, 91231 (9.123100e+04) cycles, ratio peak/perf: 45.458233 %}


PROBLEM SIZE: i: 36, j : 160, k : 256

BLIS mean : {time : 3.290100e-05 sec, 101872 (1.018720e+05) cycles, ratio peak/perf: 45.233234 %}
BLIS median : {time : 3.279500e-05 sec, 101529 (1.015290e+05) cycles, ratio peak/perf: 45.386047 %}
GEN mean : {time : 3.364300e-05 sec, 104264 (1.042640e+05) cycles, ratio peak/perf: 44.195503 %}
GEN median : {time : 3.456400e-05 sec, 107096 (1.070960e+05) cycles, ratio peak/perf: 43.026817 %}


PROBLEM SIZE: i: 42, j : 16, k : 256

BLIS mean : {time : 1.706200e-05 sec, 52836 (5.283600e+04) cycles, ratio peak/perf: 10.174881 %}
BLIS median : {time : 1.708500e-05 sec, 52906 (5.290600e+04) cycles, ratio peak/perf: 10.161418 %}
GEN mean : {time : 4.206000e-06 sec, 13050 (1.305000e+04) cycles, ratio peak/perf: 41.195404 %}
GEN median : {time : 4.197000e-06 sec, 13031 (1.303100e+04) cycles, ratio peak/perf: 41.255466 %}


PROBLEM SIZE: i: 42, j : 32, k : 256

BLIS mean : {time : 1.652000e-05 sec, 51179 (5.117900e+04) cycles, ratio peak/perf: 21.008617 %}
BLIS median : {time : 1.658700e-05 sec, 51385 (5.138500e+04) cycles, ratio peak/perf: 20.924395 %}
GEN mean : {time : 8.398000e-06 sec, 26032 (2.603200e+04) cycles, ratio peak/perf: 41.303013 %}
GEN median : {time : 8.402000e-06 sec, 26039 (2.603900e+04) cycles, ratio peak/perf: 41.291908 %}


PROBLEM SIZE: i: 42, j : 48, k : 256

BLIS mean : {time : 2.332500e-05 sec, 72231 (7.223100e+04) cycles, ratio peak/perf: 22.328363 %}
BLIS median : {time : 2.333500e-05 sec, 72256 (7.225600e+04) cycles, ratio peak/perf: 22.320639 %}
GEN mean : {time : 1.173500e-05 sec, 36366 (3.636600e+04) cycles, ratio peak/perf: 44.349117 %}
GEN median : {time : 1.171800e-05 sec, 36304 (3.630400e+04) cycles, ratio peak/perf: 44.424858 %}


PROBLEM SIZE: i: 42, j : 64, k : 256

BLIS mean : {time : 2.278000e-05 sec, 70530 (7.053000e+04) cycles, ratio peak/perf: 30.489153 %}
BLIS median : {time : 2.274500e-05 sec, 70428 (7.042800e+04) cycles, ratio peak/perf: 30.533310 %}
GEN mean : {time : 1.628200e-05 sec, 50449 (5.044900e+04) cycles, ratio peak/perf: 42.625225 %}
GEN median : {time : 1.627400e-05 sec, 50465 (5.046500e+04) cycles, ratio peak/perf: 42.611710 %}


PROBLEM SIZE: i: 42, j : 80, k : 256

BLIS mean : {time : 2.954000e-05 sec, 91464 (9.146400e+04) cycles, ratio peak/perf: 29.388613 %}
BLIS median : {time : 2.947500e-05 sec, 91260 (9.126000e+04) cycles, ratio peak/perf: 29.454306 %}
GEN mean : {time : 1.924900e-05 sec, 59675 (5.967500e+04) cycles, ratio peak/perf: 45.043987 %}
GEN median : {time : 1.919000e-05 sec, 59481 (5.948100e+04) cycles, ratio peak/perf: 45.190903 %}


PROBLEM SIZE: i: 42, j : 96, k : 256

BLIS mean : {time : 2.906600e-05 sec, 89997 (8.999700e+04) cycles, ratio peak/perf: 35.841194 %}
BLIS median : {time : 2.900300e-05 sec, 89808 (8.980800e+04) cycles, ratio peak/perf: 35.916622 %}
GEN mean : {time : 2.415200e-05 sec, 74869 (7.486900e+04) cycles, ratio peak/perf: 43.083252 %}
GEN median : {time : 2.405700e-05 sec, 74556 (7.455600e+04) cycles, ratio peak/perf: 43.264122 %}


PROBLEM SIZE: i: 42, j : 112, k : 256

BLIS mean : {time : 3.600900e-05 sec, 111486 (1.114860e+05) cycles, ratio peak/perf: 33.754910 %}
BLIS median : {time : 3.593700e-05 sec, 111263 (1.112630e+05) cycles, ratio peak/perf: 33.822563 %}
GEN mean : {time : 2.646800e-05 sec, 82025 (8.202500e+04) cycles, ratio peak/perf: 45.878696 %}
GEN median : {time : 2.645400e-05 sec, 81988 (8.198800e+04) cycles, ratio peak/perf: 45.899399 %}


PROBLEM SIZE: i: 42, j : 128, k : 256

BLIS mean : {time : 3.557700e-05 sec, 110215 (1.102150e+05) cycles, ratio peak/perf: 39.021912 %}
BLIS median : {time : 3.544700e-05 sec, 109807 (1.098070e+05) cycles, ratio peak/perf: 39.166901 %}
GEN mean : {time : 3.223000e-05 sec, 99890 (9.989000e+04) cycles, ratio peak/perf: 43.055363 %}
GEN median : {time : 3.213200e-05 sec, 99570 (9.957000e+04) cycles, ratio peak/perf: 43.193733 %}


PROBLEM SIZE: i: 42, j : 144, k : 256

BLIS mean : {time : 4.234700e-05 sec, 131131 (1.311310e+05) cycles, ratio peak/perf: 36.897453 %}
BLIS median : {time : 4.220400e-05 sec, 130685 (1.306850e+05) cycles, ratio peak/perf: 37.023376 %}
GEN mean : {time : 3.401300e-05 sec, 105398 (1.053980e+05) cycles, ratio peak/perf: 45.905994 %}
GEN median : {time : 3.415800e-05 sec, 105845 (1.058450e+05) cycles, ratio peak/perf: 45.712128 %}


PROBLEM SIZE: i: 42, j : 160, k : 256

BLIS mean : {time : 4.180000e-05 sec, 129444 (1.294440e+05) cycles, ratio peak/perf: 41.531471 %}
BLIS median : {time : 4.175900e-05 sec, 129322 (1.293220e+05) cycles, ratio peak/perf: 41.570652 %}
GEN mean : {time : 4.024700e-05 sec, 124721 (1.247210e+05) cycles, ratio peak/perf: 43.104210 %}
GEN median : {time : 4.018600e-05 sec, 124463 (1.244630e+05) cycles, ratio peak/perf: 43.193558 %}


PROBLEM SIZE: i: 48, j : 16, k : 256

BLIS mean : {time : 1.496200e-05 sec, 46350 (4.635000e+04) cycles, ratio peak/perf: 13.255664 %}
BLIS median : {time : 1.495000e-05 sec, 46319 (4.631900e+04) cycles, ratio peak/perf: 13.264535 %}
GEN mean : {time : 4.739000e-06 sec, 14698 (1.469800e+04) cycles, ratio peak/perf: 41.801605 %}
GEN median : {time : 4.722000e-06 sec, 14635 (1.463500e+04) cycles, ratio peak/perf: 41.981552 %}


PROBLEM SIZE: i: 48, j : 32, k : 256

BLIS mean : {time : 1.420600e-05 sec, 43989 (4.398900e+04) cycles, ratio peak/perf: 27.934256 %}
BLIS median : {time : 1.416600e-05 sec, 43874 (4.387400e+04) cycles, ratio peak/perf: 28.007477 %}
GEN mean : {time : 9.526000e-06 sec, 29518 (2.951800e+04) cycles, ratio peak/perf: 41.628838 %}
GEN median : {time : 9.485000e-06 sec, 29385 (2.938500e+04) cycles, ratio peak/perf: 41.817253 %}


PROBLEM SIZE: i: 48, j : 48, k : 256

BLIS mean : {time : 2.099200e-05 sec, 64999 (6.499900e+04) cycles, ratio peak/perf: 28.357359 %}
BLIS median : {time : 2.091400e-05 sec, 64768 (6.476800e+04) cycles, ratio peak/perf: 28.458498 %}
GEN mean : {time : 1.335000e-05 sec, 41379 (4.137900e+04) cycles, ratio peak/perf: 44.544334 %}
GEN median : {time : 1.333200e-05 sec, 41321 (4.132100e+04) cycles, ratio peak/perf: 44.606857 %}


PROBLEM SIZE: i: 48, j : 64, k : 256

BLIS mean : {time : 2.034400e-05 sec, 63007 (6.300700e+04) cycles, ratio peak/perf: 39.005192 %}
BLIS median : {time : 2.035900e-05 sec, 63109 (6.310900e+04) cycles, ratio peak/perf: 38.942146 %}
GEN mean : {time : 1.828900e-05 sec, 56669 (5.666900e+04) cycles, ratio peak/perf: 43.367626 %}
GEN median : {time : 1.854500e-05 sec, 57421 (5.742100e+04) cycles, ratio peak/perf: 42.799671 %}


PROBLEM SIZE: i: 48, j : 80, k : 256

BLIS mean : {time : 2.728600e-05 sec, 84486 (8.448600e+04) cycles, ratio peak/perf: 36.361053 %}
BLIS median : {time : 2.722900e-05 sec, 84307 (8.430700e+04) cycles, ratio peak/perf: 36.438255 %}
GEN mean : {time : 2.176000e-05 sec, 67469 (6.746900e+04) cycles, ratio peak/perf: 45.532021 %}
GEN median : {time : 2.172800e-05 sec, 67352 (6.735200e+04) cycles, ratio peak/perf: 45.611118 %}


PROBLEM SIZE: i: 48, j : 96, k : 256

BLIS mean : {time : 2.646700e-05 sec, 81963 (8.196300e+04) cycles, ratio peak/perf: 44.976391 %}
BLIS median : {time : 2.641600e-05 sec, 81817 (8.181700e+04) cycles, ratio peak/perf: 45.056652 %}
GEN mean : {time : 2.681600e-05 sec, 83124 (8.312400e+04) cycles, ratio peak/perf: 44.348202 %}
GEN median : {time : 2.746200e-05 sec, 85081 (8.508100e+04) cycles, ratio peak/perf: 43.328121 %}


PROBLEM SIZE: i: 48, j : 112, k : 256

BLIS mean : {time : 3.355100e-05 sec, 103904 (1.039040e+05) cycles, ratio peak/perf: 41.392056 %}
BLIS median : {time : 3.354500e-05 sec, 103877 (1.038770e+05) cycles, ratio peak/perf: 41.402813 %}
GEN mean : {time : 3.043400e-05 sec, 94319 (9.431900e+04) cycles, ratio peak/perf: 45.598450 %}
GEN median : {time : 3.045400e-05 sec, 94387 (9.438700e+04) cycles, ratio peak/perf: 45.565598 %}


PROBLEM SIZE: i: 48, j : 128, k : 256

BLIS mean : {time : 3.280200e-05 sec, 101570 (1.015700e+05) cycles, ratio peak/perf: 48.392242 %}
BLIS median : {time : 3.277500e-05 sec, 101477 (1.014770e+05) cycles, ratio peak/perf: 48.436592 %}
GEN mean : {time : 3.563200e-05 sec, 110457 (1.104570e+05) cycles, ratio peak/perf: 44.498764 %}
GEN median : {time : 3.674400e-05 sec, 113895 (1.138950e+05) cycles, ratio peak/perf: 43.155537 %}


PROBLEM SIZE: i: 48, j : 144, k : 256

BLIS mean : {time : 3.956300e-05 sec, 122491 (1.224910e+05) cycles, ratio peak/perf: 45.142910 %}
BLIS median : {time : 3.950600e-05 sec, 122320 (1.223200e+05) cycles, ratio peak/perf: 45.206017 %}
GEN mean : {time : 3.840500e-05 sec, 118991 (1.189910e+05) cycles, ratio peak/perf: 46.470741 %}
GEN median : {time : 3.876800e-05 sec, 120107 (1.201070e+05) cycles, ratio peak/perf: 46.038948 %}


PROBLEM SIZE: i: 48, j : 160, k : 256

BLIS mean : {time : 3.898500e-05 sec, 120707 (1.207070e+05) cycles, ratio peak/perf: 50.900112 %}
BLIS median : {time : 3.894400e-05 sec, 120563 (1.205630e+05) cycles, ratio peak/perf: 50.960907 %}
GEN mean : {time : 4.409400e-05 sec, 136581 (1.365810e+05) cycles, ratio peak/perf: 44.984295 %}
GEN median : {time : 4.292300e-05 sec, 132913 (1.329130e+05) cycles, ratio peak/perf: 46.225727 %}


PROBLEM SIZE: i: 54, j : 16, k : 256

BLIS mean : {time : 1.900400e-05 sec, 58845 (5.884500e+04) cycles, ratio peak/perf: 11.746113 %}
BLIS median : {time : 1.892200e-05 sec, 58600 (5.860000e+04) cycles, ratio peak/perf: 11.795222 %}
GEN mean : {time : 5.169000e-06 sec, 16035 (1.603500e+04) cycles, ratio peak/perf: 43.105705 %}
GEN median : {time : 5.158000e-06 sec, 15998 (1.599800e+04) cycles, ratio peak/perf: 43.205402 %}


PROBLEM SIZE: i: 54, j : 32, k : 256

BLIS mean : {time : 1.835100e-05 sec, 56823 (5.682300e+04) cycles, ratio peak/perf: 24.328176 %}
BLIS median : {time : 1.833900e-05 sec, 56777 (5.677700e+04) cycles, ratio peak/perf: 24.347887 %}
GEN mean : {time : 1.122100e-05 sec, 34767 (3.476700e+04) cycles, ratio peak/perf: 39.761845 %}
GEN median : {time : 1.115400e-05 sec, 34566 (3.456600e+04) cycles, ratio peak/perf: 39.993057 %}


PROBLEM SIZE: i: 54, j : 48, k : 256

BLIS mean : {time : 2.648700e-05 sec, 82013 (8.201300e+04) cycles, ratio peak/perf: 25.283796 %}
BLIS median : {time : 2.647600e-05 sec, 81988 (8.198800e+04) cycles, ratio peak/perf: 25.291506 %}
GEN mean : {time : 1.490800e-05 sec, 46220 (4.622000e+04) cycles, ratio peak/perf: 44.863697 %}
GEN median : {time : 1.501000e-05 sec, 46497 (4.649700e+04) cycles, ratio peak/perf: 44.596424 %}


PROBLEM SIZE: i: 54, j : 64, k : 256

BLIS mean : {time : 2.569500e-05 sec, 79557 (7.955700e+04) cycles, ratio peak/perf: 34.752441 %}
BLIS median : {time : 2.564500e-05 sec, 79365 (7.936500e+04) cycles, ratio peak/perf: 34.836514 %}
GEN mean : {time : 2.167900e-05 sec, 67181 (6.718100e+04) cycles, ratio peak/perf: 41.154491 %}
GEN median : {time : 2.182800e-05 sec, 67695 (6.769500e+04) cycles, ratio peak/perf: 40.842010 %}


PROBLEM SIZE: i: 54, j : 80, k : 256

BLIS mean : {time : 3.385600e-05 sec, 104826 (1.048260e+05) cycles, ratio peak/perf: 32.968922 %}
BLIS median : {time : 3.375000e-05 sec, 104508 (1.045080e+05) cycles, ratio peak/perf: 33.069241 %}
GEN mean : {time : 2.486600e-05 sec, 77110 (7.711000e+04) cycles, ratio peak/perf: 44.819088 %}
GEN median : {time : 2.523400e-05 sec, 78263 (7.826300e+04) cycles, ratio peak/perf: 44.158798 %}


PROBLEM SIZE: i: 54, j : 96, k : 256

BLIS mean : {time : 3.308700e-05 sec, 102473 (1.024730e+05) cycles, ratio peak/perf: 40.471149 %}
BLIS median : {time : 3.311600e-05 sec, 102567 (1.025670e+05) cycles, ratio peak/perf: 40.434059 %}
GEN mean : {time : 3.110300e-05 sec, 96375 (9.637500e+04) cycles, ratio peak/perf: 43.031906 %}
GEN median : {time : 3.101800e-05 sec, 96111 (9.611100e+04) cycles, ratio peak/perf: 43.150108 %}


PROBLEM SIZE: i: 54, j : 112, k : 256

BLIS mean : {time : 4.112200e-05 sec, 127328 (1.273280e+05) cycles, ratio peak/perf: 37.999496 %}
BLIS median : {time : 4.107300e-05 sec, 127180 (1.271800e+05) cycles, ratio peak/perf: 38.043716 %}
GEN mean : {time : 3.417700e-05 sec, 105905 (1.059050e+05) cycles, ratio peak/perf: 45.686230 %}
GEN median : {time : 3.411000e-05 sec, 105697 (1.056970e+05) cycles, ratio peak/perf: 45.776134 %}


PROBLEM SIZE: i: 54, j : 128, k : 256

BLIS mean : {time : 4.044500e-05 sec, 125251 (1.252510e+05) cycles, ratio peak/perf: 44.148151 %}
BLIS median : {time : 4.038000e-05 sec, 125044 (1.250440e+05) cycles, ratio peak/perf: 44.221233 %}
GEN mean : {time : 4.015800e-05 sec, 124431 (1.244310e+05) cycles, ratio peak/perf: 44.439087 %}
GEN median : {time : 4.127500e-05 sec, 127861 (1.278610e+05) cycles, ratio peak/perf: 43.246964 %}


PROBLEM SIZE: i: 54, j : 144, k : 256

BLIS mean : {time : 4.911000e-05 sec, 152097 (1.520970e+05) cycles, ratio peak/perf: 40.900215 %}
BLIS median : {time : 5.162200e-05 sec, 159870 (1.598700e+05) cycles, ratio peak/perf: 38.911617 %}
GEN mean : {time : 4.446700e-05 sec, 137749 (1.377490e+05) cycles, ratio peak/perf: 45.160400 %}
GEN median : {time : 4.364400e-05 sec, 135206 (1.352060e+05) cycles, ratio peak/perf: 46.009792 %}


PROBLEM SIZE: i: 54, j : 160, k : 256

BLIS mean : {time : 4.782400e-05 sec, 148057 (1.480570e+05) cycles, ratio peak/perf: 46.684723 %}
BLIS median : {time : 4.776500e-05 sec, 147880 (1.478800e+05) cycles, ratio peak/perf: 46.740601 %}
GEN mean : {time : 5.010700e-05 sec, 155213 (1.552130e+05) cycles, ratio peak/perf: 44.532352 %}
GEN median : {time : 5.161700e-05 sec, 159885 (1.598850e+05) cycles, ratio peak/perf: 43.231071 %}


PROBLEM SIZE: i: 60, j : 16, k : 256

BLIS mean : {time : 1.687600e-05 sec, 52251 (5.225100e+04) cycles, ratio peak/perf: 14.698283 %}
BLIS median : {time : 1.682000e-05 sec, 52086 (5.208600e+04) cycles, ratio peak/perf: 14.744845 %}
GEN mean : {time : 5.786000e-06 sec, 17934 (1.793400e+04) cycles, ratio peak/perf: 42.823689 %}
GEN median : {time : 5.804000e-06 sec, 17993 (1.799300e+04) cycles, ratio peak/perf: 42.683266 %}


PROBLEM SIZE: i: 60, j : 32, k : 256

BLIS mean : {time : 1.601400e-05 sec, 49588 (4.958800e+04) cycles, ratio peak/perf: 30.975237 %}
BLIS median : {time : 1.599900e-05 sec, 49540 (4.954000e+04) cycles, ratio peak/perf: 31.005249 %}
GEN mean : {time : 1.280000e-05 sec, 39661 (3.966100e+04) cycles, ratio peak/perf: 38.728222 %}
GEN median : {time : 1.280000e-05 sec, 39657 (3.965700e+04) cycles, ratio peak/perf: 38.732128 %}


PROBLEM SIZE: i: 60, j : 48, k : 256

BLIS mean : {time : 2.400600e-05 sec, 74347 (7.434700e+04) cycles, ratio peak/perf: 30.989819 %}
BLIS median : {time : 2.396200e-05 sec, 74214 (7.421400e+04) cycles, ratio peak/perf: 31.045355 %}
GEN mean : {time : 1.651600e-05 sec, 51189 (5.118900e+04) cycles, ratio peak/perf: 45.009670 %}
GEN median : {time : 1.650600e-05 sec, 51092 (5.109200e+04) cycles, ratio peak/perf: 45.095123 %}


PROBLEM SIZE: i: 60, j : 64, k : 256

BLIS mean : {time : 2.324100e-05 sec, 71968 (7.196800e+04) cycles, ratio peak/perf: 42.685638 %}
BLIS median : {time : 2.321500e-05 sec, 71889 (7.188900e+04) cycles, ratio peak/perf: 42.732548 %}
GEN mean : {time : 2.250900e-05 sec, 69762 (6.976200e+04) cycles, ratio peak/perf: 44.035435 %}
GEN median : {time : 2.298200e-05 sec, 71174 (7.117400e+04) cycles, ratio peak/perf: 43.161827 %}


PROBLEM SIZE: i: 60, j : 80, k : 256

BLIS mean : {time : 3.131500e-05 sec, 96958 (9.695800e+04) cycles, ratio peak/perf: 39.604778 %}
BLIS median : {time : 3.124600e-05 sec, 96746 (9.674600e+04) cycles, ratio peak/perf: 39.691563 %}
GEN mean : {time : 2.703300e-05 sec, 83781 (8.378100e+04) cycles, ratio peak/perf: 45.833782 %}
GEN median : {time : 2.700500e-05 sec, 83721 (8.372100e+04) cycles, ratio peak/perf: 45.866627 %}


PROBLEM SIZE: i: 60, j : 96, k : 256

BLIS mean : {time : 3.048600e-05 sec, 94382 (9.438200e+04) cycles, ratio peak/perf: 48.822868 %}
BLIS median : {time : 3.051000e-05 sec, 94469 (9.446900e+04) cycles, ratio peak/perf: 48.777905 %}
GEN mean : {time : 3.315500e-05 sec, 102748 (1.027480e+05) cycles, ratio peak/perf: 44.847588 %}
GEN median : {time : 3.416200e-05 sec, 105842 (1.058420e+05) cycles, ratio peak/perf: 43.536591 %}


PROBLEM SIZE: i: 60, j : 112, k : 256

BLIS mean : {time : 3.853100e-05 sec, 119299 (1.192990e+05) cycles, ratio peak/perf: 45.063244 %}
BLIS median : {time : 3.850100e-05 sec, 119202 (1.192020e+05) cycles, ratio peak/perf: 45.099915 %}
GEN mean : {time : 3.729000e-05 sec, 115545 (1.155450e+05) cycles, ratio peak/perf: 46.527328 %}
GEN median : {time : 3.768600e-05 sec, 116764 (1.167640e+05) cycles, ratio peak/perf: 46.041588 %}


PROBLEM SIZE: i: 60, j : 128, k : 256

BLIS mean : {time : 3.808600e-05 sec, 117902 (1.179020e+05) cycles, ratio peak/perf: 52.111076 %}
BLIS median : {time : 3.804000e-05 sec, 117694 (1.176940e+05) cycles, ratio peak/perf: 52.203171 %}
GEN mean : {time : 5.012300e-05 sec, 155263 (1.552630e+05) cycles, ratio peak/perf: 39.571568 %}
GEN median : {time : 5.016700e-05 sec, 155377 (1.553770e+05) cycles, ratio peak/perf: 39.542534 %}


PROBLEM SIZE: i: 60, j : 144, k : 256

BLIS mean : {time : 4.587300e-05 sec, 142014 (1.420140e+05) cycles, ratio peak/perf: 48.671257 %}
BLIS median : {time : 4.574900e-05 sec, 141634 (1.416340e+05) cycles, ratio peak/perf: 48.801842 %}
GEN mean : {time : 4.844700e-05 sec, 150090 (1.500900e+05) cycles, ratio peak/perf: 46.052368 %}
GEN median : {time : 4.831700e-05 sec, 149670 (1.496700e+05) cycles, ratio peak/perf: 46.181599 %}


PROBLEM SIZE: i: 60, j : 160, k : 256

BLIS mean : {time : 4.504200e-05 sec, 139446 (1.394460e+05) cycles, ratio peak/perf: 55.075085 %}
BLIS median : {time : 4.494000e-05 sec, 139135 (1.391350e+05) cycles, ratio peak/perf: 55.198189 %}
GEN mean : {time : 5.489800e-05 sec, 170049 (1.700490e+05) cycles, ratio peak/perf: 45.163452 %}
GEN median : {time : 5.305700e-05 sec, 164336 (1.643360e+05) cycles, ratio peak/perf: 46.733521 %}


i: 6, j: 16, k: 256, peak number of cycles: 768 (7.680000e+02)
i: 6, j: 32, k: 256, peak number of cycles: 1536 (1.536000e+03)
i: 6, j: 48, k: 256, peak number of cycles: 2304 (2.304000e+03)
i: 6, j: 64, k: 256, peak number of cycles: 3072 (3.072000e+03)
i: 6, j: 80, k: 256, peak number of cycles: 3840 (3.840000e+03)
i: 6, j: 96, k: 256, peak number of cycles: 4608 (4.608000e+03)
i: 6, j: 112, k: 256, peak number of cycles: 5376 (5.376000e+03)
i: 6, j: 128, k: 256, peak number of cycles: 6144 (6.144000e+03)
i: 6, j: 144, k: 256, peak number of cycles: 6912 (6.912000e+03)
i: 6, j: 160, k: 256, peak number of cycles: 7680 (7.680000e+03)
i: 12, j: 16, k: 256, peak number of cycles: 1536 (1.536000e+03)
i: 12, j: 32, k: 256, peak number of cycles: 3072 (3.072000e+03)
i: 12, j: 48, k: 256, peak number of cycles: 4608 (4.608000e+03)
i: 12, j: 64, k: 256, peak number of cycles: 6144 (6.144000e+03)
i: 12, j: 80, k: 256, peak number of cycles: 7680 (7.680000e+03)
i: 12, j: 96, k: 256, peak number of cycles: 9216 (9.216000e+03)
i: 12, j: 112, k: 256, peak number of cycles: 10752 (1.075200e+04)
i: 12, j: 128, k: 256, peak number of cycles: 12288 (1.228800e+04)
i: 12, j: 144, k: 256, peak number of cycles: 13824 (1.382400e+04)
i: 12, j: 160, k: 256, peak number of cycles: 15360 (1.536000e+04)
i: 18, j: 16, k: 256, peak number of cycles: 2304 (2.304000e+03)
i: 18, j: 32, k: 256, peak number of cycles: 4608 (4.608000e+03)
i: 18, j: 48, k: 256, peak number of cycles: 6912 (6.912000e+03)
i: 18, j: 64, k: 256, peak number of cycles: 9216 (9.216000e+03)
i: 18, j: 80, k: 256, peak number of cycles: 11520 (1.152000e+04)
i: 18, j: 96, k: 256, peak number of cycles: 13824 (1.382400e+04)
i: 18, j: 112, k: 256, peak number of cycles: 16128 (1.612800e+04)
i: 18, j: 128, k: 256, peak number of cycles: 18432 (1.843200e+04)
i: 18, j: 144, k: 256, peak number of cycles: 20736 (2.073600e+04)
i: 18, j: 160, k: 256, peak number of cycles: 23040 (2.304000e+04)
i: 24, j: 16, k: 256, peak number of cycles: 3072 (3.072000e+03)
i: 24, j: 32, k: 256, peak number of cycles: 6144 (6.144000e+03)
i: 24, j: 48, k: 256, peak number of cycles: 9216 (9.216000e+03)
i: 24, j: 64, k: 256, peak number of cycles: 12288 (1.228800e+04)
i: 24, j: 80, k: 256, peak number of cycles: 15360 (1.536000e+04)
i: 24, j: 96, k: 256, peak number of cycles: 18432 (1.843200e+04)
i: 24, j: 112, k: 256, peak number of cycles: 21504 (2.150400e+04)
i: 24, j: 128, k: 256, peak number of cycles: 24576 (2.457600e+04)
i: 24, j: 144, k: 256, peak number of cycles: 27648 (2.764800e+04)
i: 24, j: 160, k: 256, peak number of cycles: 30720 (3.072000e+04)
i: 30, j: 16, k: 256, peak number of cycles: 3840 (3.840000e+03)
i: 30, j: 32, k: 256, peak number of cycles: 7680 (7.680000e+03)
i: 30, j: 48, k: 256, peak number of cycles: 11520 (1.152000e+04)
i: 30, j: 64, k: 256, peak number of cycles: 15360 (1.536000e+04)
i: 30, j: 80, k: 256, peak number of cycles: 19200 (1.920000e+04)
i: 30, j: 96, k: 256, peak number of cycles: 23040 (2.304000e+04)
i: 30, j: 112, k: 256, peak number of cycles: 26880 (2.688000e+04)
i: 30, j: 128, k: 256, peak number of cycles: 30720 (3.072000e+04)
i: 30, j: 144, k: 256, peak number of cycles: 34560 (3.456000e+04)
i: 30, j: 160, k: 256, peak number of cycles: 38400 (3.840000e+04)
i: 36, j: 16, k: 256, peak number of cycles: 4608 (4.608000e+03)
i: 36, j: 32, k: 256, peak number of cycles: 9216 (9.216000e+03)
i: 36, j: 48, k: 256, peak number of cycles: 13824 (1.382400e+04)
i: 36, j: 64, k: 256, peak number of cycles: 18432 (1.843200e+04)
i: 36, j: 80, k: 256, peak number of cycles: 23040 (2.304000e+04)
i: 36, j: 96, k: 256, peak number of cycles: 27648 (2.764800e+04)
i: 36, j: 112, k: 256, peak number of cycles: 32256 (3.225600e+04)
i: 36, j: 128, k: 256, peak number of cycles: 36864 (3.686400e+04)
i: 36, j: 144, k: 256, peak number of cycles: 41472 (4.147200e+04)
i: 36, j: 160, k: 256, peak number of cycles: 46080 (4.608000e+04)
i: 42, j: 16, k: 256, peak number of cycles: 5376 (5.376000e+03)
i: 42, j: 32, k: 256, peak number of cycles: 10752 (1.075200e+04)
i: 42, j: 48, k: 256, peak number of cycles: 16128 (1.612800e+04)
i: 42, j: 64, k: 256, peak number of cycles: 21504 (2.150400e+04)
i: 42, j: 80, k: 256, peak number of cycles: 26880 (2.688000e+04)
i: 42, j: 96, k: 256, peak number of cycles: 32256 (3.225600e+04)
i: 42, j: 112, k: 256, peak number of cycles: 37632 (3.763200e+04)
i: 42, j: 128, k: 256, peak number of cycles: 43008 (4.300800e+04)
i: 42, j: 144, k: 256, peak number of cycles: 48384 (4.838400e+04)
i: 42, j: 160, k: 256, peak number of cycles: 53760 (5.376000e+04)
i: 48, j: 16, k: 256, peak number of cycles: 6144 (6.144000e+03)
i: 48, j: 32, k: 256, peak number of cycles: 12288 (1.228800e+04)
i: 48, j: 48, k: 256, peak number of cycles: 18432 (1.843200e+04)
i: 48, j: 64, k: 256, peak number of cycles: 24576 (2.457600e+04)
i: 48, j: 80, k: 256, peak number of cycles: 30720 (3.072000e+04)
i: 48, j: 96, k: 256, peak number of cycles: 36864 (3.686400e+04)
i: 48, j: 112, k: 256, peak number of cycles: 43008 (4.300800e+04)
i: 48, j: 128, k: 256, peak number of cycles: 49152 (4.915200e+04)
i: 48, j: 144, k: 256, peak number of cycles: 55296 (5.529600e+04)
i: 48, j: 160, k: 256, peak number of cycles: 61440 (6.144000e+04)
i: 54, j: 16, k: 256, peak number of cycles: 6912 (6.912000e+03)
i: 54, j: 32, k: 256, peak number of cycles: 13824 (1.382400e+04)
i: 54, j: 48, k: 256, peak number of cycles: 20736 (2.073600e+04)
i: 54, j: 64, k: 256, peak number of cycles: 27648 (2.764800e+04)
i: 54, j: 80, k: 256, peak number of cycles: 34560 (3.456000e+04)
i: 54, j: 96, k: 256, peak number of cycles: 41472 (4.147200e+04)
i: 54, j: 112, k: 256, peak number of cycles: 48384 (4.838400e+04)
i: 54, j: 128, k: 256, peak number of cycles: 55296 (5.529600e+04)
i: 54, j: 144, k: 256, peak number of cycles: 62208 (6.220800e+04)
i: 54, j: 160, k: 256, peak number of cycles: 69120 (6.912000e+04)
i: 60, j: 16, k: 256, peak number of cycles: 7680 (7.680000e+03)
i: 60, j: 32, k: 256, peak number of cycles: 15360 (1.536000e+04)
i: 60, j: 48, k: 256, peak number of cycles: 23040 (2.304000e+04)
i: 60, j: 64, k: 256, peak number of cycles: 30720 (3.072000e+04)
i: 60, j: 80, k: 256, peak number of cycles: 38400 (3.840000e+04)
i: 60, j: 96, k: 256, peak number of cycles: 46080 (4.608000e+04)
i: 60, j: 112, k: 256, peak number of cycles: 53760 (5.376000e+04)
i: 60, j: 128, k: 256, peak number of cycles: 61440 (6.144000e+04)
i: 60, j: 144, k: 256, peak number of cycles: 69120 (6.912000e+04)
i: 60, j: 160, k: 256, peak number of cycles: 76800 (7.680000e+04)
